[gd_scene load_steps=2 format=2]

[ext_resource path="res://scenes/TileSets/Sets/BasicTileSet.tres" type="TileSet" id=1]






[node name="leveltemplate" type="Node2D" index="0"]

[node name="TileMap" type="TileMap" parent="." index="0"]

mode = 0
tile_set = ExtResource( 1 )
cell_size = Vector2( 32, 32 )
cell_quadrant_size = 16
cell_custom_transform = Transform2D( 1, 0, 0, 1, 0, 0 )
cell_half_offset = 2
cell_tile_origin = 0
cell_y_sort = false
cell_clip_uv = false
collision_use_kinematic = false
collision_friction = 1.0
collision_bounce = 0.0
collision_layer = 1
collision_mask = 1
occluder_light_mask = 1
format = 1
tile_data = PoolIntArray( 0, 0, 0, 1, 0, 0, 2, 0, 0, 6, 0, 0, 7, 0, 0, 8, 0, 0, 65536, 0, 0, 65544, 0, 0, 131072, 0, 0, 131080, 0, 0, 393216, 0, 0, 393224, 0, 0, 458752, 0, 0, 458760, 0, 0, 524288, 0, 0, 524289, 0, 0, 524290, 0, 0, 524291, 0, 0, 524292, 0, 0, 524293, 0, 0, 524294, 0, 0, 524295, 0, 0, 524296, 0, 0 )
_sections_unfolded = [ "Cell" ]


