[gd_scene load_steps=11 format=2]

[ext_resource path="res://scenes/SavePoint.tscn" type="PackedScene" id=1]
[ext_resource path="res://Art/Levels/Level Numbers.png" type="Texture" id=2]
[ext_resource path="res://scenes/TileSets/Attachable/BackgroundTiles.tscn" type="PackedScene" id=3]
[ext_resource path="res://scenes/HorizontalMovingPlatformUpDown.tscn" type="PackedScene" id=4]
[ext_resource path="res://scenes/Sign.tscn" type="PackedScene" id=5]
[ext_resource path="res://scenes/TileSets/Attachable/DeadlyTiles.tscn" type="PackedScene" id=6]
[ext_resource path="res://scenes/TileSets/Attachable/BasicTiles.tscn" type="PackedScene" id=7]
[ext_resource path="res://scenes/Fist.tscn" type="PackedScene" id=8]
[ext_resource path="res://scenes/Goal.tscn" type="PackedScene" id=9]
[ext_resource path="res://scenes/Player.tscn" type="PackedScene" id=10]

[node name="Level 10" type="Node2D" index="0"]

pause_mode = 1
_sections_unfolded = [ "Pause", "Transform" ]

[node name="Savepoints" type="Node2D" parent="." index="0"]

position = Vector2( 0, -418.789 )

[node name="SavePoint" parent="Savepoints" index="0" instance=ExtResource( 1 )]

position = Vector2( 2193.96, 904.313 )

[node name="SavePoint2" parent="Savepoints" index="1" instance=ExtResource( 1 )]

position = Vector2( 1376.53, 759.586 )

[node name="Sprite" type="Sprite" parent="." index="1"]

position = Vector2( 0.522095, -420.086 )
texture = ExtResource( 2 )
region_enabled = true
region_rect = Rect2( 0, 384, 128, 128 )
_sections_unfolded = [ "Region" ]

[node name="BackgroundTiles" parent="." index="2" instance=ExtResource( 3 )]

position = Vector2( 0, -420 )
_sections_unfolded = [ "Cell", "Collision", "Transform" ]

[node name="HorizontalMovingPlatformUpDown2" parent="." index="3" instance=ExtResource( 4 )]

position = Vector2( 2316.57, 509 )
_sections_unfolded = [ "Collision", "Transform", "collision" ]
min_y = 509
max_y = 225

[node name="Sign" parent="." index="4" instance=ExtResource( 5 )]

position = Vector2( -279.589, -1393.28 )
region_rect = Rect2( 64, 0, 32, 32 )

[node name="DeadlyTiles" parent="." index="5" instance=ExtResource( 6 )]

position = Vector2( 0, -420 )
tile_data = PoolIntArray( -983014, 2, 0, -917478, 2, 0, -851942, 2, 0, -786406, 2, 0, -720870, 2, 0, -655334, 2, 0, -589798, 2, 0, -524262, 2, 0, -458726, 2, 0, -393190, 2, 0, -327654, 2, 0, -262118, 2, 0, -196582, 2, 0, -131046, 2, 0, -65510, 2, 0, 26, 2, 0, 65562, 2, 0, 131098, 2, 0, 196634, 2, 0, 262170, 2, 0, 327706, 2, 0, 393242, 2, 0, 458778, 2, 0, 524311, 3, 0, 524314, 2, 0, 589847, 3, 0, 589850, 2, 0, 655383, 3, 0, 655386, 2, 0, 720919, 3, 0, 720922, 2, 0, 786455, 3, 0, 786458, 2, 0, 851991, 3, 0, 851994, 2, 0, 917527, 3, 0, 917530, 2, 0, 983063, 3, 0, 983066, 2, 0, 1048599, 3, 0, 1048603, 1, 0, 1048604, 1, 0, 1048605, 1, 0, 1114135, 3, 0, 1179671, 3, 0, 1179680, 1, 0, 1179681, 1, 0, 1179682, 1, 0, 1179683, 1, 0, 1179684, 1, 0, 1179685, 1, 0, 1179686, 1, 0, 1179687, 1, 0, 1179688, 1, 0, 1179689, 1, 0, 1179690, 1, 0, 1179691, 1, 0, 1179692, 1, 0, 1179693, 1, 0, 1245207, 3, 0, 1310743, 3, 0, 1310777, 1, 0, 1310778, 1, 0, 1310779, 1, 0, 1310780, 1, 0, 1310781, 1, 0, 1310782, 1, 0, 1310783, 1, 0, 1310784, 1, 0, 1310785, 1, 0, 1310786, 1, 0, 1310787, 1, 0, 1310788, 1, 0, 1310789, 1, 0, 1376279, 3, 0, 1441815, 3, 0, 1507351, 3, 0, 1572887, 3, 0, 1638423, 3, 0, 1703959, 3, 0, 1769495, 3, 0, 1835031, 3, 0, 1900567, 3, 0, 2031614, 4, 0, 2031615, 4, 0, 1966080, 4, 0, 1966081, 4, 0, 1966082, 4, 0, 1966083, 4, 0, 1966084, 4, 0, 1966085, 4, 0, 1966086, 4, 0, 1966087, 4, 0, 1966088, 4, 0, 1966089, 4, 0, 1966090, 4, 0, 1966091, 4, 0, 1966092, 4, 0, 1966093, 4, 0, 1966094, 4, 0, 1966095, 4, 0, 1966096, 4, 0, 1966097, 4, 0, 1966098, 4, 0, 1966099, 4, 0, 1966100, 4, 0, 1966101, 4, 0, 1966102, 4, 0, 1966103, 4, 0, 1966104, 4, 0, 1966105, 4, 0, 1966106, 4, 0, 1966107, 4, 0, 1966108, 4, 0, 1966109, 4, 0, 1966110, 4, 0, 1966111, 4, 0, 1966112, 4, 0, 1966113, 4, 0, 1966114, 4, 0, 1966115, 4, 0, 1966116, 4, 0, 1966117, 4, 0, 1966118, 4, 0, 1966119, 4, 0, 1966120, 4, 0, 1966121, 4, 0, 1966122, 4, 0, 1966123, 4, 0, 1966124, 4, 0, 1966125, 4, 0, 1966126, 4, 0, 1966127, 4, 0, 1966128, 4, 0, 1966129, 4, 0, 1966130, 4, 0, 1966131, 4, 0, 1966132, 4, 0, 1966133, 4, 0, 1966134, 4, 0, 1966135, 4, 0, 1966136, 4, 0, 1966137, 4, 0, 1966138, 4, 0, 1966139, 4, 0, 1966140, 4, 0, 1966141, 4, 0, 1966142, 4, 0, 1966143, 4, 0, 1966144, 4, 0, 1966145, 4, 0, 1966146, 4, 0, 1966147, 4, 0, 1966148, 4, 0, 1966149, 4, 0, 1966150, 4, 0, 2097150, 5, 0, 2097151, 5, 0, 2031616, 5, 0, 2031617, 5, 0, 2031618, 5, 0, 2031619, 5, 0, 2031620, 5, 0, 2031621, 5, 0, 2031622, 5, 0, 2031623, 5, 0, 2031624, 5, 0, 2031625, 5, 0, 2031626, 5, 0, 2031627, 5, 0, 2031628, 5, 0, 2031629, 5, 0, 2031630, 5, 0, 2031631, 5, 0, 2031632, 5, 0, 2031633, 5, 0, 2031634, 5, 0, 2031635, 5, 0, 2031636, 5, 0, 2031637, 5, 0, 2031638, 5, 0, 2031639, 5, 0, 2031640, 5, 0, 2031641, 5, 0, 2031642, 5, 0, 2031643, 5, 0, 2031644, 5, 0, 2031645, 5, 0, 2031646, 5, 0, 2031647, 5, 0, 2031648, 5, 0, 2031649, 5, 0, 2031650, 5, 0, 2031651, 5, 0, 2031652, 5, 0, 2031653, 5, 0, 2031654, 5, 0, 2031655, 5, 0, 2031656, 5, 0, 2031657, 5, 0, 2031658, 5, 0, 2031659, 5, 0, 2031660, 5, 0, 2031661, 5, 0, 2031662, 5, 0, 2031663, 5, 0, 2031664, 5, 0, 2031665, 5, 0, 2031666, 5, 0, 2031667, 5, 0, 2031668, 5, 0, 2031669, 5, 0, 2031670, 5, 0, 2031671, 5, 0, 2031672, 5, 0, 2031673, 5, 0, 2031674, 5, 0, 2031675, 5, 0, 2031676, 5, 0, 2031677, 5, 0, 2031678, 5, 0, 2031679, 5, 0, 2031680, 5, 0, 2031681, 5, 0, 2031682, 5, 0, 2031683, 5, 0, 2031684, 5, 0, 2031685, 5, 0, 2031686, 5, 0, 2162686, 5, 0, 2162687, 5, 0, 2097152, 5, 0, 2097153, 5, 0, 2097154, 5, 0, 2097155, 5, 0, 2097156, 5, 0, 2097157, 5, 0, 2097158, 5, 0, 2097159, 5, 0, 2097160, 5, 0, 2097161, 5, 0, 2097162, 5, 0, 2097163, 5, 0, 2097164, 5, 0, 2097165, 5, 0, 2097166, 5, 0, 2097167, 5, 0, 2097168, 5, 0, 2097169, 5, 0, 2097170, 5, 0, 2097171, 5, 0, 2097172, 5, 0, 2097173, 5, 0, 2097174, 5, 0, 2097175, 5, 0, 2097176, 5, 0, 2097177, 5, 0, 2097178, 5, 0, 2097179, 5, 0, 2097180, 5, 0, 2097181, 5, 0, 2097182, 5, 0, 2097183, 5, 0, 2097184, 5, 0, 2097185, 5, 0, 2097186, 5, 0, 2097187, 5, 0, 2097188, 5, 0, 2097189, 5, 0, 2097190, 5, 0, 2097191, 5, 0, 2097192, 5, 0, 2097193, 5, 0, 2097194, 5, 0, 2097195, 5, 0, 2097196, 5, 0, 2097197, 5, 0, 2097198, 5, 0, 2097199, 5, 0, 2097200, 5, 0, 2097201, 5, 0, 2097202, 5, 0, 2097203, 5, 0, 2097204, 5, 0, 2097205, 5, 0, 2097206, 5, 0, 2097207, 5, 0, 2097208, 5, 0, 2097209, 5, 0, 2097210, 5, 0, 2097211, 5, 0, 2097212, 5, 0, 2097213, 5, 0, 2097214, 5, 0, 2097215, 5, 0, 2097216, 5, 0, 2097217, 5, 0, 2097218, 5, 0, 2097219, 5, 0, 2097220, 5, 0, 2097221, 5, 0, 2097222, 5, 0, 2228222, 5, 0, 2228223, 5, 0, 2162688, 5, 0, 2162689, 5, 0, 2162690, 5, 0, 2162691, 5, 0, 2162692, 5, 0, 2162693, 5, 0, 2162694, 5, 0, 2162695, 5, 0, 2162696, 5, 0, 2162697, 5, 0, 2162698, 5, 0, 2162699, 5, 0, 2162700, 5, 0, 2162701, 5, 0, 2162702, 5, 0, 2162703, 5, 0, 2162704, 5, 0, 2162705, 5, 0, 2162706, 5, 0, 2162707, 5, 0, 2162708, 5, 0, 2162709, 5, 0, 2162710, 5, 0, 2162711, 5, 0, 2162712, 5, 0, 2162713, 5, 0, 2162714, 5, 0, 2162715, 5, 0, 2162716, 5, 0, 2162717, 5, 0, 2162718, 5, 0, 2162719, 5, 0, 2162720, 5, 0, 2162721, 5, 0, 2162722, 5, 0, 2162723, 5, 0, 2162724, 5, 0, 2162725, 5, 0, 2162726, 5, 0, 2162727, 5, 0, 2162728, 5, 0, 2162729, 5, 0, 2162730, 5, 0, 2162731, 5, 0, 2162732, 5, 0, 2162733, 5, 0, 2162734, 5, 0, 2162735, 5, 0, 2162736, 5, 0, 2162737, 5, 0, 2162738, 5, 0, 2162739, 5, 0, 2162740, 5, 0, 2162741, 5, 0, 2162742, 5, 0, 2162743, 5, 0, 2162744, 5, 0, 2162745, 5, 0, 2162746, 5, 0, 2162747, 5, 0, 2162748, 5, 0, 2162749, 5, 0, 2162750, 5, 0, 2162751, 5, 0, 2162752, 5, 0, 2162753, 5, 0, 2162754, 5, 0, 2162755, 5, 0, 2162756, 5, 0, 2162757, 5, 0, 2162758, 5, 0 )
_sections_unfolded = [ "Cell", "Collision", "Transform" ]

[node name="BasicTiles" parent="." index="6" instance=ExtResource( 7 )]

position = Vector2( 0, -420 )
tile_data = PoolIntArray( -917507, 8, 0, -983013, 7, 0, -851971, 8, 0, -917477, 7, 0, -786435, 8, 0, -851941, 7, 0, -720899, 8, 0, -786405, 7, 0, -655363, 8, 0, -720869, 7, 0, -589827, 8, 0, -655333, 7, 0, -524291, 8, 0, -589797, 7, 0, -458755, 8, 0, -524261, 7, 0, -393219, 8, 0, -458725, 7, 0, -327683, 8, 0, -393189, 7, 0, -262147, 8, 0, -327653, 7, 0, -196611, 8, 0, -262117, 7, 0, -131075, 8, 0, -196581, 7, 0, -65539, 8, 0, -131045, 7, 0, -3, 8, 0, -65509, 7, 0, 65533, 8, 0, 27, 7, 0, 131069, 8, 0, 65563, 7, 0, 196605, 8, 0, 196606, 0, 0, 196607, 0, 0, 131072, 0, 0, 131099, 7, 0, 262141, 8, 0, 196635, 7, 0, 327677, 8, 0, 262171, 7, 0, 393213, 8, 0, 327690, 9, 0, 327698, 13, 0, 327707, 7, 0, 458749, 8, 0, 393243, 7, 0, 524285, 8, 0, 458779, 7, 0, 589821, 8, 0, 524310, 8, 0, 524315, 7, 0, 655357, 8, 0, 589846, 8, 0, 589851, 0, 0, 589852, 0, 0, 589853, 0, 0, 589854, 0, 0, 589855, 0, 0, 589856, 0, 0, 589857, 0, 0, 589858, 0, 0, 589859, 0, 0, 589860, 0, 0, 589861, 0, 0, 589862, 0, 0, 589863, 0, 0, 589864, 0, 0, 589865, 0, 0, 589866, 0, 0, 589867, 0, 0, 589868, 0, 0, 589869, 0, 0, 589870, 0, 0, 589871, 0, 0, 589872, 0, 0, 589873, 0, 0, 589874, 0, 0, 589875, 0, 0, 589876, 0, 0, 589877, 0, 0, 589878, 0, 0, 589879, 0, 0, 589880, 0, 0, 589881, 0, 0, 720893, 8, 0, 655382, 8, 0, 655387, 0, 0, 655388, 0, 0, 655389, 0, 0, 655390, 0, 0, 655391, 0, 0, 655392, 0, 0, 655393, 0, 0, 655394, 0, 0, 655395, 0, 0, 655396, 0, 0, 655397, 0, 0, 655398, 0, 0, 655399, 0, 0, 655400, 0, 0, 655401, 0, 0, 655402, 0, 0, 655403, 0, 0, 655404, 0, 0, 655405, 0, 0, 655406, 0, 0, 655407, 0, 0, 655408, 0, 0, 655409, 0, 0, 655410, 0, 0, 655411, 0, 0, 655412, 0, 0, 655413, 0, 0, 655414, 0, 0, 655415, 0, 0, 655416, 0, 0, 655417, 0, 0, 786429, 8, 0, 720918, 8, 0, 720923, 0, 0, 720924, 0, 0, 720925, 0, 0, 720926, 0, 0, 720927, 0, 0, 720928, 0, 0, 720929, 0, 0, 720930, 0, 0, 720931, 0, 0, 720932, 0, 0, 720933, 0, 0, 720934, 0, 0, 720935, 0, 0, 720936, 0, 0, 720937, 0, 0, 720938, 0, 0, 720939, 0, 0, 720940, 0, 0, 720941, 0, 0, 720942, 0, 0, 720943, 0, 0, 720944, 0, 0, 720945, 0, 0, 720946, 0, 0, 720947, 0, 0, 720948, 0, 0, 720949, 0, 0, 720950, 0, 0, 720951, 0, 0, 720952, 0, 0, 720953, 0, 0, 851965, 8, 0, 786454, 8, 0, 786459, 0, 0, 786460, 0, 0, 786461, 0, 0, 786462, 0, 0, 786463, 0, 0, 786464, 0, 0, 786465, 0, 0, 786466, 0, 0, 786467, 0, 0, 786468, 0, 0, 786469, 0, 0, 786470, 0, 0, 786471, 0, 0, 786472, 0, 0, 786473, 0, 0, 786474, 0, 0, 786475, 0, 0, 786476, 0, 0, 786477, 0, 0, 786478, 0, 0, 786479, 0, 0, 786480, 0, 0, 786481, 0, 0, 786482, 0, 0, 786483, 0, 0, 786484, 0, 0, 786485, 0, 0, 786486, 0, 0, 786487, 0, 0, 786488, 0, 0, 786489, 0, 0, 786490, 0, 0, 786491, 0, 0, 786492, 0, 0, 786493, 0, 0, 786494, 0, 0, 786495, 0, 0, 786496, 0, 0, 786497, 0, 0, 786498, 0, 0, 786499, 0, 0, 786500, 0, 0, 786501, 0, 0, 917501, 8, 0, 851990, 8, 0, 851995, 0, 0, 851996, 0, 0, 851997, 0, 0, 851998, 0, 0, 851999, 0, 0, 852000, 0, 0, 852001, 0, 0, 852002, 0, 0, 852003, 0, 0, 852004, 0, 0, 852005, 0, 0, 852006, 0, 0, 852007, 0, 0, 852008, 0, 0, 852009, 0, 0, 852010, 0, 0, 852011, 0, 0, 852012, 0, 0, 852013, 0, 0, 852014, 0, 0, 852015, 0, 0, 852016, 0, 0, 852017, 0, 0, 852018, 0, 0, 852019, 0, 0, 852020, 0, 0, 852021, 0, 0, 852022, 0, 0, 852023, 0, 0, 852024, 0, 0, 852025, 0, 0, 852026, 0, 0, 852027, 0, 0, 852028, 0, 0, 852029, 0, 0, 852030, 0, 0, 852031, 0, 0, 852032, 0, 0, 852033, 0, 0, 852034, 0, 0, 852035, 0, 0, 852036, 0, 0, 852037, 0, 0, 983037, 8, 0, 917526, 8, 0, 917531, 0, 0, 917532, 0, 0, 917533, 0, 0, 917534, 0, 0, 917535, 0, 0, 917536, 0, 0, 917537, 0, 0, 917538, 0, 0, 917539, 0, 0, 917540, 0, 0, 917541, 0, 0, 917542, 0, 0, 917543, 0, 0, 917544, 0, 0, 917545, 0, 0, 917546, 0, 0, 917547, 0, 0, 917548, 0, 0, 917549, 0, 0, 917550, 0, 0, 917551, 0, 0, 917552, 0, 0, 917553, 0, 0, 917554, 0, 0, 917555, 0, 0, 917556, 0, 0, 917557, 0, 0, 917558, 0, 0, 917559, 0, 0, 917560, 0, 0, 917561, 0, 0, 917562, 0, 0, 917563, 0, 0, 917564, 0, 0, 917565, 0, 0, 917566, 0, 0, 917567, 0, 0, 917568, 0, 0, 917569, 0, 0, 917570, 0, 0, 917571, 0, 0, 917572, 0, 0, 917573, 0, 0, 1048573, 8, 0, 983062, 8, 0, 983067, 0, 0, 983068, 0, 0, 983069, 0, 0, 983070, 0, 0, 983071, 0, 0, 983072, 0, 0, 983073, 0, 0, 983074, 0, 0, 983075, 0, 0, 983076, 0, 0, 983077, 0, 0, 983078, 0, 0, 983079, 0, 0, 983080, 0, 0, 983081, 0, 0, 983082, 0, 0, 983083, 0, 0, 983084, 0, 0, 983085, 0, 0, 983086, 0, 0, 983087, 0, 0, 983088, 0, 0, 983089, 0, 0, 983090, 0, 0, 983091, 0, 0, 983092, 0, 0, 983093, 0, 0, 983094, 0, 0, 983095, 0, 0, 983096, 0, 0, 983097, 0, 0, 983098, 0, 0, 983099, 0, 0, 983100, 0, 0, 983101, 0, 0, 983102, 0, 0, 983103, 0, 0, 983104, 0, 0, 983105, 0, 0, 983106, 0, 0, 983107, 0, 0, 983108, 0, 0, 983109, 0, 0, 1114109, 8, 0, 1048598, 8, 0, 1048606, 3, 0, 1048607, 0, 0, 1048608, 0, 0, 1048609, 0, 0, 1048610, 0, 0, 1048611, 0, 0, 1048612, 0, 0, 1048613, 0, 0, 1048614, 0, 0, 1048615, 0, 0, 1048616, 0, 0, 1048617, 0, 0, 1048618, 0, 0, 1048619, 0, 0, 1048620, 0, 0, 1048621, 0, 0, 1048622, 0, 0, 1048623, 0, 0, 1048624, 0, 0, 1048625, 0, 0, 1048626, 0, 0, 1048627, 0, 0, 1048628, 0, 0, 1048629, 0, 0, 1048630, 0, 0, 1048631, 0, 0, 1048632, 0, 0, 1048633, 0, 0, 1048634, 0, 0, 1048635, 0, 0, 1048636, 0, 0, 1048637, 0, 0, 1048638, 0, 0, 1048639, 0, 0, 1048640, 0, 0, 1048641, 0, 0, 1048642, 0, 0, 1048643, 0, 0, 1048644, 0, 0, 1048645, 0, 0, 1179645, 8, 0, 1114134, 8, 0, 1114143, 3, 0, 1114144, 0, 0, 1114145, 0, 0, 1114146, 0, 0, 1114147, 0, 0, 1114148, 0, 0, 1114149, 0, 0, 1114150, 0, 0, 1114151, 0, 0, 1114152, 0, 0, 1114153, 0, 0, 1114154, 0, 0, 1114155, 0, 0, 1114156, 0, 0, 1114157, 0, 0, 1114158, 0, 0, 1114159, 0, 0, 1114160, 0, 0, 1114161, 0, 0, 1114162, 0, 0, 1114163, 0, 0, 1114164, 0, 0, 1114165, 0, 0, 1114166, 0, 0, 1114167, 0, 0, 1114168, 0, 0, 1114169, 0, 0, 1114170, 0, 0, 1114171, 0, 0, 1114172, 0, 0, 1114173, 0, 0, 1114174, 0, 0, 1114175, 0, 0, 1114176, 0, 0, 1114177, 0, 0, 1114178, 0, 0, 1114179, 0, 0, 1114180, 0, 0, 1114181, 0, 0, 1245181, 8, 0, 1179670, 8, 0, 1179693, 3, 0, 1179694, 0, 0, 1179695, 0, 0, 1179696, 0, 0, 1179697, 0, 0, 1179698, 0, 0, 1179699, 0, 0, 1179700, 0, 0, 1179701, 0, 0, 1179702, 0, 0, 1179703, 0, 0, 1179704, 0, 0, 1179705, 0, 0, 1179706, 0, 0, 1179707, 0, 0, 1179708, 0, 0, 1179709, 0, 0, 1179710, 0, 0, 1179711, 0, 0, 1179712, 0, 0, 1179713, 0, 0, 1179714, 0, 0, 1179715, 0, 0, 1179716, 0, 0, 1179717, 0, 0, 1310717, 8, 0, 1245206, 8, 0, 1245208, 12, 0, 1245230, 3, 0, 1245231, 0, 0, 1245232, 0, 0, 1245233, 0, 0, 1245234, 0, 0, 1245235, 0, 0, 1245236, 0, 0, 1245237, 0, 0, 1245238, 0, 0, 1245239, 0, 0, 1245240, 0, 0, 1245241, 0, 0, 1245242, 0, 0, 1245243, 0, 0, 1245244, 0, 0, 1245245, 0, 0, 1245246, 0, 0, 1245247, 0, 0, 1245248, 0, 0, 1245249, 0, 0, 1245250, 0, 0, 1245251, 0, 0, 1245252, 0, 0, 1245253, 0, 0, 1376253, 8, 0, 1310742, 8, 0, 1310767, 3, 0, 1310768, 0, 0, 1310769, 0, 0, 1310770, 0, 0, 1310771, 0, 0, 1310772, 0, 0, 1310773, 0, 0, 1310774, 0, 0, 1310775, 0, 0, 1310776, 4, 0, 1310795, 0, 0, 1441789, 8, 0, 1376278, 8, 0, 1376327, 1, 0, 1507325, 8, 0, 1441814, 8, 0, 1441825, 4, 0, 1441826, 3, 0, 1441863, 0, 0, 1572861, 8, 0, 1507350, 8, 0, 1507357, 1, 0, 1507381, 7, 0, 1507385, 7, 0, 1507387, 7, 0, 1507389, 7, 0, 1507391, 7, 0, 1507399, 0, 0, 1638397, 8, 0, 1572886, 8, 0, 1572906, 10, 0, 1572907, 10, 0, 1572910, 7, 0, 1572913, 7, 0, 1572917, 7, 0, 1572921, 7, 0, 1572923, 7, 0, 1572925, 7, 0, 1572927, 7, 0, 1572935, 0, 0, 1703933, 8, 0, 1638422, 8, 0, 1638446, 7, 0, 1638449, 7, 0, 1638451, 8, 0, 1638453, 7, 0, 1638457, 7, 0, 1638459, 7, 0, 1638461, 7, 0, 1638463, 7, 0, 1638465, 7, 0, 1638471, 0, 0, 1769469, 8, 0, 1703958, 8, 0, 1703982, 7, 0, 1703985, 7, 0, 1703987, 8, 0, 1703989, 7, 0, 1703993, 7, 0, 1703995, 7, 0, 1703997, 7, 0, 1703999, 7, 0, 1704001, 7, 0, 1704007, 0, 0, 1835005, 8, 0, 1769494, 8, 0, 1769518, 7, 0, 1769521, 7, 0, 1769523, 8, 0, 1769525, 7, 0, 1769529, 7, 0, 1769531, 7, 0, 1769533, 7, 0, 1769535, 7, 0, 1769537, 7, 0, 1769543, 0, 0, 1900541, 8, 0, 1835030, 8, 0, 1835054, 7, 0, 1835057, 7, 0, 1835059, 8, 0, 1835061, 7, 0, 1835065, 7, 0, 1835067, 7, 0, 1835069, 7, 0, 1835071, 7, 0, 1835073, 7, 0, 1835078, 1, 0, 1835079, 0, 0, 1966077, 8, 0, 1900566, 8, 0, 1900590, 7, 0, 1900593, 7, 0, 1900595, 8, 0, 1900597, 7, 0, 1900601, 7, 0, 1900603, 7, 0, 1900605, 7, 0, 1900607, 7, 0, 1900609, 7, 0, 1900610, 9, 0, 1900611, 9, 0, 1900612, 9, 0, 1900613, 9, 0, 1900614, 9, 0, 1900615, 0, 0, 2031613, 8, 0, 1966102, 8, 0, 1966126, 7, 0, 1966129, 7, 0, 1966131, 8, 0, 1966133, 7, 0, 1966137, 7, 0, 1966139, 7, 0, 1966141, 7, 0, 1966143, 7, 0, 1966145, 7, 0, 1966151, 0, 0, 2097149, 8, 0, 2031638, 8, 0, 2031662, 7, 0, 2031665, 7, 0, 2031667, 8, 0, 2031669, 7, 0, 2031673, 7, 0, 2031675, 7, 0, 2031677, 7, 0, 2031679, 7, 0, 2031681, 7, 0, 2031687, 0, 0, 2162685, 8, 0, 2097174, 8, 0, 2097198, 7, 0, 2097201, 7, 0, 2097203, 8, 0, 2097205, 7, 0, 2097209, 7, 0, 2097211, 7, 0, 2097213, 7, 0, 2097215, 7, 0, 2097217, 7, 0, 2097223, 0, 0, 2228221, 8, 0, 2162710, 8, 0, 2162734, 7, 0, 2162737, 7, 0, 2162739, 8, 0, 2162741, 7, 0, 2162745, 7, 0, 2162747, 7, 0, 2162749, 7, 0, 2162751, 7, 0, 2162753, 7, 0, 2162759, 0, 0, 2293757, 6, 0, 2228225, 6, 0, 2228229, 6, 0, 2228233, 6, 0, 2228237, 6, 0, 2228241, 6, 0, 2228245, 6, 0, 2228249, 6, 0, 2228253, 6, 0, 2228257, 6, 0, 2228261, 6, 0, 2228265, 6, 0, 2228269, 6, 0, 2228273, 6, 0, 2228277, 6, 0, 2228281, 6, 0, 2228285, 6, 0, 2228289, 6, 0, 2228293, 0, 0, 2228294, 0, 0, 2228295, 0, 0, 2293829, 0, 0, 2293830, 0, 0, 2293831, 0, 0, 2359365, 0, 0, 2359366, 0, 0, 2359367, 0, 0, 2424901, 0, 0, 2424902, 0, 0, 2424903, 0, 0 )

[node name="Fist" parent="." index="7" instance=ExtResource( 8 )]

position = Vector2( -976.048, -190.647 )

[node name="Goal" parent="." index="8" instance=ExtResource( 9 )]

position = Vector2( -703.198, -1434.32 )

[node name="Player" parent="." index="9" instance=ExtResource( 10 )]

position = Vector2( -19.0297, -391.063 )


