[gd_scene load_steps=6 format=2]

[ext_resource path="res://Art/Levels/Level Numbers.png" type="Texture" id=1]
[ext_resource path="res://scenes/TileSets/Attachable/BasicTiles.tscn" type="PackedScene" id=2]
[ext_resource path="res://scenes/Player.tscn" type="PackedScene" id=3]
[ext_resource path="res://scenes/Goal.tscn" type="PackedScene" id=4]
[ext_resource path="res://scenes/Enemy.tscn" type="PackedScene" id=5]

[node name="Level 2" type="Node2D" index="0"]

pause_mode = 1
_sections_unfolded = [ "Pause", "Transform", "Visibility" ]

[node name="Savepoints" type="Node2D" parent="." index="0"]

[node name="Sprite" type="Sprite" parent="." index="1"]

position = Vector2( 0, -33 )
texture = ExtResource( 1 )
region_enabled = true
region_rect = Rect2( 128, 0, 128, 128 )
_sections_unfolded = [ "Region", "Visibility" ]

[node name="BasicTiles" parent="." index="2" instance=ExtResource( 2 )]

tile_data = PoolIntArray( -262049, 0, 0, -262048, 0, 0, -262047, 0, 0, -262046, 0, 0, -262045, 0, 0, -262044, 0, 0, -262043, 0, 0, -262042, 0, 0, -262041, 0, 0, -262040, 0, 0, -262039, 0, 0, -262038, 0, 0, -262037, 0, 0, -262036, 0, 0, -262035, 0, 0, -262034, 0, 0, -262033, 0, 0, -262032, 0, 0, -262031, 0, 0, -262030, 0, 0, -196572, 0, 0, -196571, 0, 0, -196570, 0, 0, -196566, 0, 0, -196565, 0, 0, -196560, 0, 0, -196559, 0, 0, -196558, 0, 0, -196557, 0, 0, -196556, 0, 0, -196555, 0, 0, -196554, 0, 0, -196553, 0, 0, -196552, 0, 0, -196551, 0, 0, -196550, 0, 0, -196549, 0, 0, -196548, 0, 0, -196547, 0, 0, -196546, 0, 0, -196545, 0, 0, -196544, 0, 0, -196543, 0, 0, -196542, 0, 0, -196541, 0, 0, -196540, 0, 0, -196539, 0, 0, -196538, 0, 0, -196537, 0, 0, -196536, 0, 0, -196535, 0, 0, -196534, 0, 0, -196513, 0, 0, -196512, 0, 0, -196511, 4, 0, -196510, 0, 0, -196509, 3, 0, -196508, 0, 0, -196507, 0, 0, -196506, 0, 0, -196505, 0, 0, -196504, 0, 0, -196503, 0, 0, -196502, 0, 0, -196501, 0, 0, -196500, 0, 0, -196499, 0, 0, -196498, 0, 0, -196497, 0, 0, -196496, 0, 0, -196495, 0, 0, -196494, 0, 0, -131036, 0, 0, -131035, 0, 0, -131034, 0, 0, -131030, 0, 0, -131029, 0, 0, -131023, 0, 0, -131022, 0, 0, -131021, 0, 0, -131020, 0, 0, -131019, 4, 0, -131014, 3, 0, -131013, 0, 0, -131012, 0, 0, -131011, 0, 0, -131010, 0, 0, -131009, 0, 0, -131008, 0, 0, -131007, 0, 0, -131006, 0, 0, -131005, 0, 0, -131004, 0, 0, -131003, 0, 0, -131002, 0, 0, -131001, 0, 0, -131000, 0, 0, -130999, 0, 0, -130998, 0, 0, -130997, 0, 0, -130996, 0, 0, -130995, 0, 0, -130994, 0, 0, -130993, 0, 0, -130992, 0, 0, -130991, 0, 0, -130990, 0, 0, -130989, 0, 0, -130988, 0, 0, -130987, 0, 0, -130986, 0, 0, -130985, 0, 0, -130984, 0, 0, -130983, 0, 0, -130982, 0, 0, -130981, 0, 0, -130980, 0, 0, -130979, 0, 0, -130978, 0, 0, -130977, 0, 0, -130976, 4, 0, -130974, 0, 0, -130972, 3, 0, -130971, 0, 0, -130967, 3, 0, -130966, 0, 0, -130965, 0, 0, -130964, 0, 0, -130963, 0, 0, -130962, 0, 0, -130961, 0, 0, -130960, 0, 0, -130959, 0, 0, -130958, 0, 0, -65500, 0, 0, -65499, 0, 0, -65498, 0, 0, -65494, 0, 0, -65493, 0, 0, -65486, 0, 0, -65485, 0, 0, -65484, 0, 0, -65477, 3, 0, -65476, 0, 0, -65475, 0, 0, -65474, 0, 0, -65473, 0, 0, -65472, 0, 0, -65471, 4, 0, -65470, 3, 0, -65469, 0, 0, -65468, 0, 0, -65467, 0, 0, -65466, 0, 0, -65465, 0, 0, -65464, 0, 0, -65463, 0, 0, -65462, 0, 0, -65461, 0, 0, -65460, 0, 0, -65459, 0, 0, -65458, 0, 0, -65457, 0, 0, -65456, 0, 0, -65455, 0, 0, -65454, 0, 0, -65453, 0, 0, -65452, 0, 0, -65451, 0, 0, -65450, 0, 0, -65449, 0, 0, -65448, 0, 0, -65447, 0, 0, -65446, 0, 0, -65445, 3, 0, -65444, 0, 0, -65443, 0, 0, -65442, 0, 0, -65441, 0, 0, -65438, 0, 0, -65435, 4, 0, 36, 3, 0, 37, 4, 0, 38, 4, 0, 42, 3, 0, 43, 0, 0, 51, 0, 0, 55, 0, 0, 60, 0, 0, 64, 0, 0, 72, 4, 0, 77, 3, 0, 78, 0, 0, 79, 0, 0, 80, 0, 0, 81, 0, 0, 82, 0, 0, 83, 0, 0, 84, 0, 0, 85, 0, 0, 86, 4, 0, 90, 0, 0, 94, 3, 0, 95, 0, 0, 98, 0, 0, 131069, 6, 0, 131070, 0, 0, 131071, 6, 0, 65536, 0, 0, 65537, 0, 0, 65538, 0, 0, 65591, 0, 0, 65596, 0, 0, 65600, 0, 0, 65614, 0, 0, 65615, 0, 0, 65616, 0, 0, 65617, 0, 0, 65618, 0, 0, 65619, 0, 0, 65620, 0, 0, 65621, 0, 0, 196605, 0, 0, 131074, 6, 0, 131126, 0, 0, 131127, 0, 0, 131132, 3, 0, 131153, 0, 0, 131156, 3, 0, 131157, 4, 0, 262142, 0, 0, 262143, 0, 0, 196608, 0, 0, 196614, 0, 0, 196651, 0, 0, 196655, 0, 0, 196656, 0, 0, 196657, 0, 0, 196658, 0, 0, 196659, 0, 0, 196660, 0, 0, 196661, 0, 0, 196662, 0, 0, 196663, 0, 0, 196664, 0, 0, 196677, 1, 0, 327678, 0, 0, 262145, 0, 0, 262150, 0, 0, 262151, 0, 0, 262152, 0, 0, 262153, 0, 0, 262154, 0, 0, 262155, 0, 0, 262156, 0, 0, 262157, 0, 0, 262158, 2, 0, 262159, 0, 0, 262160, 0, 0, 262161, 0, 0, 262162, 0, 0, 262163, 0, 0, 262164, 0, 0, 262165, 0, 0, 262166, 0, 0, 262167, 4, 0, 262171, 0, 0, 262172, 0, 0, 262173, 0, 0, 262174, 0, 0, 262175, 0, 0, 262176, 0, 0, 262177, 0, 0, 262178, 0, 0, 262179, 2, 0, 262185, 0, 0, 262186, 0, 0, 262187, 0, 0, 262188, 2, 0, 262190, 0, 0, 262191, 6, 0, 262195, 6, 0, 262198, 6, 0, 262201, 0, 0, 262211, 0, 0, 262212, 0, 0, 262213, 0, 0, 262216, 0, 0, 262219, 0, 0, 262220, 0, 0, 262233, 1, 0, 262234, 0, 0, 262235, 0, 0, 262236, 0, 0, 262246, 1, 0, 262247, 0, 0, 262248, 0, 0, 262249, 0, 0, 262250, 2, 0, 262253, 0, 0, 262254, 0, 0, 262255, 0, 0, 262256, 0, 0, 262257, 0, 0, 262258, 0, 0, 393213, 0, 0, 393214, 0, 0, 393215, 0, 0, 327680, 0, 0, 327681, 0, 0, 327682, 0, 0, 327683, 0, 0, 327684, 0, 0, 327686, 0, 0, 327687, 0, 0, 327688, 0, 0, 327689, 0, 0, 327690, 4, 0, 327693, 3, 0, 327694, 0, 0, 327695, 0, 0, 327696, 4, 0, 327699, 3, 0, 327700, 0, 0, 327701, 0, 0, 327702, 0, 0, 327707, 0, 0, 327708, 0, 0, 327709, 0, 0, 327710, 0, 0, 327711, 0, 0, 327712, 0, 0, 327713, 0, 0, 327714, 0, 0, 327715, 0, 0, 327718, 1, 0, 327719, 2, 0, 327721, 0, 0, 327722, 0, 0, 327723, 0, 0, 327724, 0, 0, 327725, 0, 0, 327726, 0, 0, 327737, 0, 0, 327746, 0, 0, 327747, 0, 0, 327748, 0, 0, 327749, 0, 0, 327750, 0, 0, 327751, 0, 0, 327752, 0, 0, 327755, 3, 0, 327756, 0, 0, 327759, 0, 0, 327760, 0, 0, 327768, 0, 0, 327769, 0, 0, 327770, 0, 0, 327771, 0, 0, 327772, 0, 0, 327773, 0, 0, 327774, 0, 0, 327775, 0, 0, 327781, 8, 0, 327782, 0, 0, 327783, 0, 0, 327784, 0, 0, 327785, 0, 0, 327786, 0, 0, 327789, 3, 0, 327790, 0, 0, 327791, 0, 0, 327792, 0, 0, 327793, 0, 0, 327794, 0, 0, 458749, 0, 0, 458750, 0, 0, 458751, 0, 0, 393216, 0, 0, 393217, 0, 0, 393218, 0, 0, 393219, 0, 0, 393220, 0, 0, 393221, 0, 0, 393222, 0, 0, 393223, 0, 0, 393224, 0, 0, 393225, 0, 0, 393230, 0, 0, 393231, 0, 0, 393236, 3, 0, 393237, 0, 0, 393238, 0, 0, 393242, 1, 0, 393243, 0, 0, 393244, 0, 0, 393245, 0, 0, 393246, 0, 0, 393247, 0, 0, 393248, 0, 0, 393249, 0, 0, 393250, 0, 0, 393251, 0, 0, 393254, 0, 0, 393255, 0, 0, 393256, 0, 0, 393257, 0, 0, 393258, 0, 0, 393259, 0, 0, 393260, 0, 0, 393261, 0, 0, 393262, 0, 0, 393263, 0, 0, 393264, 0, 0, 393265, 0, 0, 393266, 0, 0, 393267, 0, 0, 393273, 0, 0, 393276, 7, 0, 393282, 0, 0, 393283, 0, 0, 393284, 0, 0, 393285, 0, 0, 393286, 0, 0, 393287, 0, 0, 393288, 0, 0, 393292, 0, 0, 393295, 0, 0, 393296, 0, 0, 393297, 0, 0, 393298, 0, 0, 393309, 3, 0, 393310, 0, 0, 393311, 4, 0, 393318, 3, 0, 393319, 4, 0, 393324, 1, 0, 393325, 0, 0, 393326, 4, 0, 393329, 3, 0, 393330, 0, 0, 524285, 0, 0, 524286, 0, 0, 524287, 0, 0, 458752, 0, 0, 458753, 0, 0, 458754, 0, 0, 458755, 0, 0, 458756, 0, 0, 458757, 0, 0, 458758, 0, 0, 458759, 0, 0, 458760, 0, 0, 458761, 0, 0, 458766, 0, 0, 458767, 0, 0, 458772, 1, 0, 458773, 0, 0, 458774, 0, 0, 458778, 0, 0, 458779, 0, 0, 458780, 0, 0, 458781, 0, 0, 458782, 0, 0, 458783, 0, 0, 458784, 0, 0, 458785, 0, 0, 458786, 0, 0, 458787, 0, 0, 458790, 0, 0, 458791, 0, 0, 458792, 0, 0, 458793, 0, 0, 458794, 0, 0, 458795, 0, 0, 458796, 0, 0, 458797, 0, 0, 458798, 0, 0, 458799, 0, 0, 458800, 0, 0, 458801, 0, 0, 458802, 0, 0, 458803, 0, 0, 458804, 0, 0, 458805, 0, 0, 458806, 0, 0, 458807, 0, 0, 458809, 0, 0, 458812, 7, 0, 458814, 7, 0, 458816, 7, 0, 458818, 0, 0, 458819, 0, 0, 458820, 0, 0, 458821, 0, 0, 458822, 0, 0, 458823, 0, 0, 458824, 0, 0, 458826, 8, 0, 458827, 0, 0, 458828, 0, 0, 458831, 0, 0, 458832, 0, 0, 458833, 0, 0, 458834, 0, 0, 458837, 0, 0, 458846, 0, 0, 458866, 0, 0, 589821, 0, 0, 589822, 0, 0, 589823, 0, 0, 524288, 0, 0, 524289, 0, 0, 524290, 0, 0, 524291, 0, 0, 524292, 0, 0, 524293, 0, 0, 524294, 0, 0, 524295, 0, 0, 524296, 0, 0, 524297, 0, 0, 524302, 0, 0, 524303, 0, 0, 524308, 0, 0, 524309, 0, 0, 524310, 0, 0, 524314, 0, 0, 524315, 0, 0, 524316, 0, 0, 524317, 0, 0, 524318, 0, 0, 524319, 0, 0, 524320, 0, 0, 524321, 0, 0, 524322, 0, 0, 524323, 0, 0, 524326, 5, 0, 524328, 5, 0, 524329, 5, 0, 524330, 5, 0, 524331, 5, 0, 524332, 5, 0, 524333, 5, 0, 524334, 5, 0, 524335, 5, 0, 524336, 5, 0, 524337, 5, 0, 524338, 5, 0, 524339, 5, 0, 524340, 5, 0, 524341, 5, 0, 524343, 5, 0, 524345, 0, 0, 524348, 7, 0, 524350, 7, 0, 524352, 7, 0, 524354, 0, 0, 524355, 0, 0, 524356, 0, 0, 524357, 0, 0, 524358, 0, 0, 524359, 0, 0, 524360, 0, 0, 524362, 8, 0, 524363, 0, 0, 524364, 0, 0, 524367, 0, 0, 524368, 0, 0, 524369, 0, 0, 524370, 0, 0, 524373, 0, 0, 524374, 0, 0, 524382, 0, 0, 524389, 8, 0, 524390, 2, 0, 524401, 1, 0, 524402, 0, 0, 655357, 0, 0, 655358, 0, 0, 655359, 0, 0, 589824, 0, 0, 589825, 0, 0, 589826, 0, 0, 589827, 0, 0, 589828, 0, 0, 589829, 0, 0, 589830, 0, 0, 589831, 0, 0, 589832, 0, 0, 589833, 0, 0, 589838, 0, 0, 589839, 0, 0, 589844, 0, 0, 589845, 0, 0, 589846, 0, 0, 589850, 0, 0, 589851, 0, 0, 589852, 0, 0, 589853, 0, 0, 589854, 0, 0, 589855, 0, 0, 589856, 0, 0, 589857, 0, 0, 589858, 0, 0, 589859, 0, 0, 589871, 0, 0, 589872, 0, 0, 589873, 0, 0, 589874, 0, 0, 589875, 0, 0, 589876, 0, 0, 589877, 0, 0, 589878, 0, 0, 589881, 0, 0, 589884, 7, 0, 589886, 7, 0, 589888, 7, 0, 589890, 0, 0, 589891, 0, 0, 589892, 0, 0, 589893, 0, 0, 589894, 0, 0, 589895, 0, 0, 589896, 0, 0, 589898, 8, 0, 589899, 0, 0, 589900, 0, 0, 589903, 0, 0, 589904, 0, 0, 589905, 0, 0, 589906, 0, 0, 589909, 0, 0, 589910, 0, 0, 589911, 0, 0, 589918, 0, 0, 589923, 1, 0, 589925, 8, 0, 589926, 0, 0, 589927, 0, 0, 589928, 0, 0, 589929, 0, 0, 589930, 0, 0, 589931, 0, 0, 589932, 0, 0, 589933, 0, 0, 589934, 0, 0, 589935, 0, 0, 589936, 0, 0, 589937, 0, 0, 589938, 0, 0, 720893, 0, 0, 720894, 0, 0, 720895, 0, 0, 655360, 0, 0, 655361, 0, 0, 655362, 0, 0, 655363, 0, 0, 655364, 0, 0, 655365, 0, 0, 655366, 0, 0, 655367, 0, 0, 655368, 0, 0, 655369, 0, 0, 655374, 0, 0, 655375, 0, 0, 655380, 0, 0, 655381, 0, 0, 655382, 0, 0, 655386, 0, 0, 655387, 0, 0, 655388, 0, 0, 655389, 0, 0, 655390, 0, 0, 655391, 0, 0, 655392, 0, 0, 655393, 0, 0, 655394, 0, 0, 655395, 0, 0, 655398, 0, 0, 655399, 0, 0, 655400, 0, 0, 655401, 0, 0, 655402, 0, 0, 655403, 0, 0, 655404, 0, 0, 655405, 0, 0, 655406, 0, 0, 655407, 0, 0, 655408, 0, 0, 655409, 0, 0, 655410, 0, 0, 655411, 0, 0, 655412, 0, 0, 655413, 0, 0, 655414, 0, 0, 655415, 0, 0, 655416, 0, 0, 655417, 0, 0, 655420, 7, 0, 655422, 7, 0, 655424, 7, 0, 655426, 0, 0, 655427, 0, 0, 655428, 0, 0, 655429, 0, 0, 655430, 0, 0, 655431, 0, 0, 655432, 0, 0, 655434, 8, 0, 655435, 0, 0, 655436, 0, 0, 655439, 0, 0, 655440, 0, 0, 655441, 0, 0, 655442, 0, 0, 655445, 0, 0, 655446, 0, 0, 655447, 0, 0, 655448, 0, 0, 655449, 0, 0, 655450, 0, 0, 655451, 0, 0, 655452, 0, 0, 655453, 0, 0, 655454, 0, 0, 655457, 7, 0, 655459, 0, 0, 655461, 8, 0, 655462, 0, 0, 655463, 0, 0, 655464, 0, 0, 655465, 0, 0, 655466, 0, 0, 655467, 0, 0, 655468, 0, 0, 655469, 0, 0, 655470, 0, 0, 655471, 0, 0, 655472, 0, 0, 655473, 0, 0, 655474, 0, 0 )

[node name="Player" parent="." index="3" instance=ExtResource( 3 )]

[node name="Goal" parent="." index="4" instance=ExtResource( 4 )]

position = Vector2( 3643.9, 103.708 )

[node name="Enemy" parent="." index="5" instance=ExtResource( 5 )]

position = Vector2( 660, 75 )
min_x = 300
max_x = 660


