[gd_scene load_steps=7 format=2]

[ext_resource path="res://scenes/SavePoint.tscn" type="PackedScene" id=1]
[ext_resource path="res://scenes/TileSets/Attachable/BackgroundTiles.tscn" type="PackedScene" id=2]
[ext_resource path="res://scenes/TileSets/Attachable/BasicTiles.tscn" type="PackedScene" id=3]
[ext_resource path="res://scenes/Player.tscn" type="PackedScene" id=4]
[ext_resource path="res://scenes/Goal.tscn" type="PackedScene" id=5]
[ext_resource path="res://scenes/TileSets/Attachable/GrassTiles.tscn" type="PackedScene" id=6]

[node name="Level 0" type="Node2D" index="0"]

pause_mode = 1
_sections_unfolded = [ "Pause", "Transform" ]

[node name="Savepoints" type="Node2D" parent="." index="0"]

editor/display_folded = true

[node name="SavePoint" parent="Savepoints" index="0" instance=ExtResource( 1 )]

position = Vector2( -295.506, 38.2246 )

[node name="BackgroundTiles" parent="." index="1" instance=ExtResource( 2 )]

tile_data = PoolIntArray( 131059, 25, 0, 131060, 25, 0, 131061, 25, 0, 131062, 25, 0, 131063, 25, 0, 131064, 25, 0, 131065, 25, 0, 131066, 25, 0, 131067, 25, 0, 131068, 25, 0, 131069, 25, 0, 131070, 25, 0, 131071, 25, 0, 65536, 25, 0, 65537, 25, 0, 65538, 25, 0, 65539, 25, 0, 65540, 25, 0, 65541, 25, 0, 65542, 25, 0, 65543, 25, 0, 65544, 25, 0, 65545, 25, 0, 65546, 25, 0, 65547, 25, 0 )

[node name="BasicTiles" parent="." index="2" instance=ExtResource( 3 )]

tile_data = PoolIntArray( -458767, 10, 0, 196595, 0, 0, 196596, 0, 0, 196597, 0, 0, 196598, 0, 0, 196599, 0, 0, 196600, 0, 0, 196601, 0, 0, 196602, 0, 0, 196603, 0, 0, 196604, 0, 0, 196605, 0, 0, 196606, 0, 0, 196607, 0, 0, 131072, 0, 0, 131073, 0, 0, 131074, 0, 0, 131075, 0, 0, 131076, 0, 0, 131077, 0, 0, 131078, 0, 0, 131079, 0, 0, 131080, 0, 0, 131081, 0, 0, 131082, 0, 0, 131083, 0, 0 )

[node name="Player" parent="." index="3" instance=ExtResource( 4 )]

position = Vector2( 3.8147e-05, -0.598755 )

[node name="Goal" parent="." index="4" instance=ExtResource( 5 )]

position = Vector2( 428.053, 28.5752 )

[node name="GrassTiles" parent="." index="5" instance=ExtResource( 6 )]

tile_data = PoolIntArray( -131083, 2, 0, -196602, 3, 0, -65546, 2, 0, -131067, 3, 0, -9, 2, 0, -65532, 3, 0, 65528, 2, 0, 3, 3, 0, 131065, 2, 0, 65538, 3, 0 )


