[gd_scene load_steps=12 format=2]

[ext_resource path="res://scenes/SavePoint.tscn" type="PackedScene" id=1]
[ext_resource path="res://scenes/HorizontalMovingPlatformUpDown.tscn" type="PackedScene" id=2]
[ext_resource path="res://Art/Levels/Level Numbers.png" type="Texture" id=3]
[ext_resource path="res://scenes/TileSets/Attachable/DeadlyTiles.tscn" type="PackedScene" id=4]
[ext_resource path="res://scenes/TileSets/Attachable/BasicTiles.tscn" type="PackedScene" id=5]
[ext_resource path="res://scenes/TileSets/Attachable/BackgroundTiles.tscn" type="PackedScene" id=6]
[ext_resource path="res://scenes/Goal.tscn" type="PackedScene" id=7]
[ext_resource path="res://scenes/Player.tscn" type="PackedScene" id=8]
[ext_resource path="res://scenes/TileSets/Attachable/GrassTiles.tscn" type="PackedScene" id=9]
[ext_resource path="res://scenes/Gunturret.tscn" type="PackedScene" id=10]
[ext_resource path="res://scenes/Sign.tscn" type="PackedScene" id=11]

[node name="Level 6" type="Node2D" index="0"]

pause_mode = 1
_sections_unfolded = [ "Pause", "Transform" ]

[node name="Savepoints" type="Node2D" parent="." index="0"]

[node name="SavePoint" parent="Savepoints" index="0" instance=ExtResource( 1 )]

position = Vector2( 7525.82, -630.286 )

[node name="HorizontalMovingPlatformUpDown2" parent="." index="1" instance=ExtResource( 2 )]

position = Vector2( 3222.9, 320.103 )
scale = Vector2( 0.5, 1 )
_sections_unfolded = [ "Collision", "Transform", "collision" ]
min_y = 320
max_y = 550

[node name="Sprite" type="Sprite" parent="." index="2"]

position = Vector2( 32, -32 )
texture = ExtResource( 3 )
region_enabled = true
region_rect = Rect2( 256, 128, 128, 128 )
_sections_unfolded = [ "Region", "Visibility" ]

[node name="DeadlyTiles" parent="." index="3" instance=ExtResource( 4 )]

tile_data = PoolIntArray( -851851, 3, 0, -327442, 0, 0, -261939, 4, 0, -261938, 4, 0, -261937, 4, 0, -261936, 4, 0, -261935, 4, 0, -261934, 4, 0, -261933, 4, 0, -261932, 4, 0, -261931, 4, 0, -261927, 4, 0, -261926, 4, 0, -261925, 4, 0, -261924, 4, 0, -261923, 4, 0, -261921, 4, 0, -261920, 4, 0, -261919, 4, 0, -261918, 4, 0, -261917, 4, 0, -261916, 4, 0, -261914, 4, 0, -261913, 4, 0, -261912, 4, 0, -261911, 4, 0, -261909, 4, 0, -261908, 4, 0, -196370, 5, 0, -130961, 1, 0, -130960, 1, 0, -130834, 5, 0, -65298, 5, 0, 238, 5, 0, 65583, 0, 0, 65774, 5, 0, 131310, 5, 0, 196846, 5, 0, 262175, 2, 0, 262382, 5, 0, 327918, 5, 0, 393454, 5, 0, 458990, 5, 0, 524526, 5, 0, 589839, 2, 0, 720932, 2, 0, 852030, 0, 0, 852031, 0, 0, 852032, 0, 0, 852033, 0, 0, 852034, 0, 0, 852035, 0, 0, 852036, 0, 0, 852037, 0, 0, 852038, 0, 0, 852039, 0, 0, 852040, 0, 0, 852041, 0, 0, 983142, 0, 0, 1048664, 0, 0, 1048665, 0, 0, 1048666, 0, 0, 1048667, 0, 0, 1048668, 0, 0, 1048669, 0, 0, 1048671, 0, 0, 1048672, 0, 0, 1048673, 0, 0, 1048674, 0, 0, 1048675, 0, 0, 1048676, 0, 0, 1114133, 4, 0, 1114134, 4, 0, 1114135, 4, 0, 1114136, 4, 0, 1114137, 4, 0, 1114138, 4, 0, 1114139, 4, 0, 1114140, 4, 0, 1114141, 4, 0, 1114142, 4, 0, 1114143, 4, 0, 1114144, 4, 0, 1114145, 4, 0, 1114146, 4, 0, 1114147, 4, 0, 1114149, 4, 0, 1114150, 4, 0, 1114151, 4, 0, 1114152, 4, 0, 1114153, 4, 0, 1114154, 4, 0, 1114155, 4, 0, 1114156, 4, 0, 1114157, 4, 0, 1114161, 4, 0, 1114162, 4, 0, 1114163, 4, 0, 1114164, 4, 0, 1114165, 4, 0, 1114166, 4, 0, 1114167, 4, 0, 1114168, 4, 0, 1114169, 4, 0, 1114170, 4, 0, 1114171, 4, 0, 1114172, 4, 0, 1114173, 4, 0, 1114174, 4, 0, 1179669, 5, 0, 1179670, 5, 0, 1179671, 5, 0, 1179672, 5, 0, 1179673, 5, 0, 1179674, 5, 0, 1179675, 5, 0, 1179676, 5, 0, 1179677, 5, 0, 1179678, 5, 0, 1179679, 5, 0, 1179680, 5, 0, 1179681, 5, 0, 1179682, 5, 0, 1179683, 5, 0, 1179685, 5, 0, 1179686, 5, 0, 1179687, 5, 0, 1179688, 5, 0, 1179689, 5, 0, 1179690, 5, 0, 1179691, 5, 0, 1179692, 5, 0, 1179693, 5, 0, 1179697, 5, 0, 1179698, 5, 0, 1179699, 5, 0, 1179700, 5, 0, 1179701, 5, 0, 1179702, 5, 0, 1179703, 5, 0, 1179704, 5, 0, 1179705, 5, 0, 1179706, 5, 0, 1179707, 5, 0, 1179708, 5, 0, 1179709, 5, 0, 1179710, 5, 0 )
_sections_unfolded = [ "Cell", "Collision", "Transform" ]

[node name="BasicTiles" parent="." index="4" instance=ExtResource( 5 )]

tile_data = PoolIntArray( -3473181, 0, 0, -3276581, 0, 0, -3276579, 0, 0, -3276577, 0, 0, -3276569, 0, 0, -3276567, 0, 0, -3276565, 0, 0, -3211045, 3, 0, -3211044, 0, 0, -3211043, 0, 0, -3211042, 0, 0, -3211041, 4, 0, -3211033, 3, 0, -3211032, 0, 0, -3211031, 0, 0, -3211030, 0, 0, -3211029, 4, 0, -3145508, 0, 0, -3145507, 0, 0, -3145506, 0, 0, -3145496, 0, 0, -3145495, 0, 0, -3145494, 0, 0, -3079972, 0, 0, -3079970, 0, 0, -3079960, 0, 0, -3079959, 4, 0, -3014436, 0, 0, -3014434, 0, 0, -3014433, 0, 0, -3014431, 0, 0, -3014429, 0, 0, -3014427, 0, 0, -3014425, 0, 0, -3014424, 0, 0, -2948900, 0, 0, -2948899, 0, 0, -2948898, 0, 0, -2948897, 0, 0, -2948896, 0, 0, -2948895, 0, 0, -2948894, 0, 0, -2948893, 0, 0, -2948892, 0, 0, -2948891, 0, 0, -2948890, 0, 0, -2948889, 0, 0, -2948888, 0, 0, -2883364, 0, 0, -2883363, 0, 0, -2883362, 0, 0, -2883361, 0, 0, -2883360, 0, 0, -2883359, 0, 0, -2883358, 0, 0, -2883357, 0, 0, -2883356, 0, 0, -2883355, 0, 0, -2883354, 0, 0, -2883353, 0, 0, -2883352, 0, 0, -2883351, 0, 0, -2883350, 0, 0, -2883349, 0, 0, -2883347, 0, 0, -2883345, 0, 0, -2817828, 0, 0, -2817827, 0, 0, -2817826, 0, 0, -2817825, 0, 0, -2817824, 0, 0, -2817823, 0, 0, -2817822, 0, 0, -2817821, 0, 0, -2817820, 0, 0, -2817819, 0, 0, -2817818, 0, 0, -2817817, 0, 0, -2817816, 0, 0, -2817815, 0, 0, -2817814, 0, 0, -2817813, 0, 0, -2817812, 0, 0, -2817811, 0, 0, -2817810, 0, 0, -2817809, 0, 0, -2752292, 0, 0, -2752291, 0, 0, -2752290, 0, 0, -2752289, 0, 0, -2752288, 0, 0, -2752287, 0, 0, -2752286, 0, 0, -2752285, 0, 0, -2752284, 0, 0, -2752283, 0, 0, -2752282, 0, 0, -2752281, 0, 0, -2752280, 0, 0, -2752279, 0, 0, -2752278, 0, 0, -2752277, 0, 0, -2752276, 0, 0, -2752275, 0, 0, -2752274, 0, 0, -2752273, 4, 0, -2686756, 0, 0, -2686755, 0, 0, -2686754, 0, 0, -2686753, 0, 0, -2686752, 0, 0, -2686751, 0, 0, -2686750, 0, 0, -2686749, 0, 0, -2686748, 0, 0, -2686747, 0, 0, -2686746, 0, 0, -2686745, 0, 0, -2686744, 0, 0, -2686743, 0, 0, -2686742, 0, 0, -2686740, 1, 0, -2686739, 4, 0, -2621220, 0, 0, -2621219, 0, 0, -2621218, 0, 0, -2621217, 0, 0, -2621216, 0, 0, -2621215, 0, 0, -2621214, 0, 0, -2621213, 0, 0, -2621212, 4, 0, -2621211, 3, 0, -2621210, 0, 0, -2621209, 0, 0, -2621208, 0, 0, -2621207, 0, 0, -2621206, 0, 0, -2621205, 1, 0, -2621204, 4, 0, -2555684, 0, 0, -2555683, 0, 0, -2555682, 0, 0, -2555681, 0, 0, -2555680, 0, 0, -2555679, 0, 0, -2555678, 0, 0, -2555677, 0, 0, -2555674, 0, 0, -2555673, 0, 0, -2555672, 0, 0, -2555671, 0, 0, -2555670, 0, 0, -2555669, 4, 0, -2490148, 0, 0, -2490147, 0, 0, -2490146, 0, 0, -2490145, 0, 0, -2490144, 0, 0, -2490143, 0, 0, -2490142, 0, 0, -2490141, 0, 0, -2490138, 0, 0, -2490137, 0, 0, -2490136, 0, 0, -2490135, 0, 0, -2490134, 0, 0, -2424612, 0, 0, -2424611, 0, 0, -2424610, 4, 0, -2424609, 3, 0, -2424608, 0, 0, -2424607, 0, 0, -2424606, 0, 0, -2424605, 0, 0, -2424604, 0, 0, -2424603, 0, 0, -2424602, 0, 0, -2424601, 0, 0, -2424600, 0, 0, -2424599, 0, 0, -2424598, 0, 0, -2359076, 0, 0, -2359075, 0, 0, -2359072, 0, 0, -2359071, 0, 0, -2359070, 0, 0, -2359069, 0, 0, -2359068, 0, 0, -2359067, 0, 0, -2359066, 0, 0, -2359065, 0, 0, -2359064, 0, 0, -2359063, 0, 0, -2359062, 0, 0, -2293540, 0, 0, -2293539, 0, 0, -2293536, 0, 0, -2293535, 0, 0, -2293534, 0, 0, -2293533, 0, 0, -2293532, 0, 0, -2293531, 0, 0, -2293530, 0, 0, -2293529, 0, 0, -2293528, 0, 0, -2293527, 0, 0, -2293526, 0, 0, -2228117, 0, 0, -2228115, 8, 0, -2228114, 7, 0, -2228112, 0, 0, -2228004, 0, 0, -2228003, 0, 0, -2228002, 0, 0, -2228001, 0, 0, -2228000, 0, 0, -2227999, 0, 0, -2227998, 0, 0, -2227997, 0, 0, -2227996, 0, 0, -2227995, 0, 0, -2227994, 0, 0, -2227993, 0, 0, -2227992, 0, 0, -2227991, 0, 0, -2227990, 0, 0, -2162581, 3, 0, -2162580, 0, 0, -2162579, 0, 0, -2162578, 0, 0, -2162577, 0, 0, -2162576, 4, 0, -2162573, 0, 0, -2162572, 0, 0, -2162569, 0, 0, -2162568, 0, 0, -2162564, 0, 0, -2162563, 0, 0, -2162468, 0, 0, -2162467, 0, 0, -2162466, 0, 0, -2162465, 0, 0, -2162464, 0, 0, -2162463, 0, 0, -2162462, 0, 0, -2162461, 0, 0, -2162460, 0, 0, -2162459, 0, 0, -2162458, 0, 0, -2162457, 0, 0, -2162456, 0, 0, -2162455, 0, 0, -2162454, 0, 0, -2097044, 0, 0, -2097043, 0, 0, -2097042, 0, 0, -2097041, 0, 0, -2097040, 0, 0, -2097039, 0, 0, -2097038, 0, 0, -2097037, 0, 0, -2097036, 0, 0, -2097035, 0, 0, -2097034, 0, 0, -2097033, 0, 0, -2097032, 0, 0, -2097031, 0, 0, -2097030, 0, 0, -2097029, 0, 0, -2097028, 0, 0, -2097027, 0, 0, -2096996, 1, 0, -2096995, 0, 0, -2096994, 2, 0, -2096932, 0, 0, -2096931, 0, 0, -2096930, 0, 0, -2096929, 0, 0, -2096928, 0, 0, -2096927, 0, 0, -2096926, 0, 0, -2096925, 0, 0, -2096924, 0, 0, -2096923, 0, 0, -2096922, 0, 0, -2096921, 0, 0, -2096920, 0, 0, -2096919, 0, 0, -2096918, 0, 0, -2031508, 0, 0, -2031507, 0, 0, -2031506, 0, 0, -2031505, 0, 0, -2031491, 0, 0, -2031461, 1, 0, -2031460, 0, 0, -2031459, 0, 0, -2031458, 0, 0, -2031457, 2, 0, -2031411, 0, 0, -2031408, 0, 0, -2031405, 0, 0, -2031396, 0, 0, -2031395, 0, 0, -2031394, 0, 0, -2031393, 0, 0, -2031392, 0, 0, -2031391, 0, 0, -2031390, 0, 0, -2031389, 0, 0, -2031388, 0, 0, -2031387, 0, 0, -2031386, 0, 0, -2031385, 4, 0, -2031384, 3, 0, -2031383, 0, 0, -2031382, 0, 0, -1965972, 0, 0, -1965971, 0, 0, -1965970, 0, 0, -1965969, 0, 0, -1965955, 0, 0, -1965926, 1, 0, -1965925, 0, 0, -1965924, 0, 0, -1965922, 0, 0, -1965921, 0, 0, -1965920, 2, 0, -1965875, 3, 0, -1965874, 0, 0, -1965873, 0, 0, -1965872, 0, 0, -1965871, 0, 0, -1965870, 0, 0, -1965869, 4, 0, -1965860, 0, 0, -1965859, 0, 0, -1965858, 0, 0, -1965857, 0, 0, -1965856, 0, 0, -1965855, 0, 0, -1965854, 0, 0, -1965853, 0, 0, -1965852, 0, 0, -1965851, 0, 0, -1965850, 0, 0, -1965847, 0, 0, -1965846, 0, 0, -1965845, 10, 0, -1965844, 10, 0, -1900436, 3, 0, -1900435, 0, 0, -1900434, 0, 0, -1900433, 4, 0, -1900419, 0, 0, -1900418, 0, 0, -1900417, 0, 0, -1900414, 5, 0, -1900410, 5, 0, -1900406, 5, 0, -1900402, 5, 0, -1900398, 5, 0, -1900394, 5, 0, -1900390, 5, 0, -1900388, 0, 0, -1900386, 0, 0, -1900385, 5, 0, -1900381, 5, 0, -1900377, 5, 0, -1900373, 5, 0, -1900369, 5, 0, -1900365, 5, 0, -1900361, 0, 0, -1900360, 0, 0, -1900338, 0, 0, -1900337, 0, 0, -1900336, 0, 0, -1900335, 0, 0, -1900334, 0, 0, -1900324, 0, 0, -1900323, 0, 0, -1900322, 0, 0, -1900321, 0, 0, -1900320, 0, 0, -1900319, 0, 0, -1900318, 0, 0, -1900317, 0, 0, -1900316, 0, 0, -1900315, 0, 0, -1900314, 0, 0, -1900311, 0, 0, -1900310, 0, 0, -1834899, 3, 0, -1834898, 0, 0, -1834883, 0, 0, -1834882, 0, 0, -1834881, 0, 0, -1834880, 0, 0, -1834879, 0, 0, -1834876, 0, 0, -1834875, 0, 0, -1834872, 0, 0, -1834871, 0, 0, -1834868, 0, 0, -1834867, 0, 0, -1834864, 0, 0, -1834863, 0, 0, -1834860, 0, 0, -1834859, 0, 0, -1834856, 0, 0, -1834855, 0, 0, -1834852, 0, 0, -1834851, 0, 0, -1834850, 0, 0, -1834847, 0, 0, -1834846, 0, 0, -1834843, 0, 0, -1834842, 0, 0, -1834839, 0, 0, -1834838, 0, 0, -1834835, 0, 0, -1834834, 0, 0, -1834831, 0, 0, -1834830, 0, 0, -1834827, 0, 0, -1834826, 0, 0, -1834825, 0, 0, -1834824, 0, 0, -1834802, 0, 0, -1834801, 0, 0, -1834799, 0, 0, -1834798, 0, 0, -1834788, 0, 0, -1834787, 0, 0, -1834786, 0, 0, -1834785, 0, 0, -1834784, 0, 0, -1834783, 4, 0, -1834782, 3, 0, -1834781, 0, 0, -1834780, 0, 0, -1834779, 0, 0, -1834778, 0, 0, -1834777, 0, 0, -1834776, 0, 0, -1834775, 0, 0, -1834774, 0, 0, -1769362, 0, 0, -1769347, 0, 0, -1769346, 0, 0, -1769345, 0, 0, -1769344, 0, 0, -1769343, 0, 0, -1769342, 0, 0, -1769341, 0, 0, -1769340, 0, 0, -1769339, 0, 0, -1769338, 0, 0, -1769337, 0, 0, -1769336, 0, 0, -1769335, 0, 0, -1769334, 0, 0, -1769333, 0, 0, -1769332, 0, 0, -1769331, 0, 0, -1769330, 0, 0, -1769329, 0, 0, -1769328, 0, 0, -1769327, 0, 0, -1769326, 0, 0, -1769325, 0, 0, -1769324, 0, 0, -1769323, 0, 0, -1769322, 0, 0, -1769321, 0, 0, -1769320, 0, 0, -1769319, 0, 0, -1769318, 0, 0, -1769317, 0, 0, -1769316, 0, 0, -1769315, 0, 0, -1769314, 0, 0, -1769313, 0, 0, -1769312, 0, 0, -1769311, 0, 0, -1769310, 0, 0, -1769309, 0, 0, -1769308, 0, 0, -1769307, 0, 0, -1769306, 0, 0, -1769305, 0, 0, -1769304, 0, 0, -1769303, 0, 0, -1769302, 0, 0, -1769301, 0, 0, -1769300, 0, 0, -1769299, 0, 0, -1769298, 0, 0, -1769297, 0, 0, -1769296, 0, 0, -1769295, 0, 0, -1769294, 0, 0, -1769293, 0, 0, -1769292, 0, 0, -1769291, 0, 0, -1769290, 0, 0, -1769289, 0, 0, -1769288, 4, 0, -1769266, 0, 0, -1769265, 0, 0, -1769263, 0, 0, -1769262, 0, 0, -1769252, 0, 0, -1769251, 0, 0, -1769250, 0, 0, -1769249, 0, 0, -1769248, 0, 0, -1769245, 0, 0, -1769244, 0, 0, -1769243, 0, 0, -1769242, 0, 0, -1769241, 0, 0, -1769240, 0, 0, -1769239, 0, 0, -1769238, 0, 0, -1703826, 0, 0, -1703811, 0, 0, -1703754, 0, 0, -1703753, 4, 0, -1703730, 0, 0, -1703729, 0, 0, -1703728, 0, 0, -1703727, 0, 0, -1703726, 0, 0, -1703716, 0, 0, -1703715, 0, 0, -1703714, 0, 0, -1703713, 0, 0, -1703712, 0, 0, -1703709, 0, 0, -1703708, 0, 0, -1703707, 0, 0, -1703706, 0, 0, -1703705, 0, 0, -1703704, 0, 0, -1703703, 0, 0, -1703702, 0, 0, -1638290, 0, 0, -1638275, 0, 0, -1638218, 0, 0, -1638194, 0, 0, -1638193, 0, 0, -1638192, 0, 0, -1638191, 0, 0, -1638190, 0, 0, -1638180, 0, 0, -1638179, 0, 0, -1638178, 0, 0, -1638177, 0, 0, -1638176, 0, 0, -1638175, 0, 0, -1638174, 0, 0, -1638173, 0, 0, -1638172, 0, 0, -1638171, 0, 0, -1638170, 0, 0, -1638169, 0, 0, -1638168, 0, 0, -1638167, 0, 0, -1638166, 0, 0, -1638165, 0, 0, -1638163, 8, 0, -1638162, 7, 0, -1638160, 0, 0, -1638159, 7, 0, -1572754, 0, 0, -1572739, 0, 0, -1572682, 0, 0, -1572681, 0, 0, -1572680, 0, 0, -1572677, 0, 0, -1572676, 0, 0, -1572673, 0, 0, -1572672, 0, 0, -1572669, 0, 0, -1572666, 0, 0, -1572665, 0, 0, -1572662, 0, 0, -1572661, 0, 0, -1572658, 0, 0, -1572657, 0, 0, -1572656, 0, 0, -1572655, 0, 0, -1572654, 0, 0, -1572644, 0, 0, -1572643, 0, 0, -1572642, 0, 0, -1572641, 0, 0, -1572640, 0, 0, -1572639, 0, 0, -1572638, 0, 0, -1572637, 0, 0, -1572636, 0, 0, -1572635, 0, 0, -1572634, 0, 0, -1572633, 0, 0, -1572632, 0, 0, -1572631, 0, 0, -1572630, 0, 0, -1572629, 0, 0, -1572628, 0, 0, -1572627, 0, 0, -1572626, 0, 0, -1572625, 0, 0, -1572624, 0, 0, -1572623, 7, 0, -1507218, 0, 0, -1507203, 0, 0, -1507146, 0, 0, -1507145, 0, 0, -1507144, 0, 0, -1507143, 0, 0, -1507142, 0, 0, -1507141, 0, 0, -1507140, 0, 0, -1507139, 0, 0, -1507138, 0, 0, -1507137, 0, 0, -1507136, 0, 0, -1507135, 0, 0, -1507134, 0, 0, -1507133, 0, 0, -1507132, 0, 0, -1507131, 0, 0, -1507130, 0, 0, -1507129, 0, 0, -1507128, 0, 0, -1507127, 0, 0, -1507126, 0, 0, -1507125, 0, 0, -1507124, 0, 0, -1507123, 0, 0, -1507122, 0, 0, -1507121, 0, 0, -1507120, 0, 0, -1507119, 0, 0, -1507118, 0, 0, -1507117, 0, 0, -1507115, 0, 0, -1507113, 0, 0, -1507111, 0, 0, -1507109, 0, 0, -1507108, 0, 0, -1507107, 4, 0, -1507094, 0, 0, -1507093, 0, 0, -1507092, 4, 0, -1507088, 3, 0, -1507087, 7, 0, -1441682, 0, 0, -1441667, 0, 0, -1441588, 3, 0, -1441587, 0, 0, -1441586, 0, 0, -1441585, 0, 0, -1441584, 0, 0, -1441583, 0, 0, -1441582, 0, 0, -1441581, 0, 0, -1441580, 0, 0, -1441579, 0, 0, -1441578, 0, 0, -1441577, 0, 0, -1441576, 0, 0, -1441575, 0, 0, -1441574, 0, 0, -1441573, 0, 0, -1441572, 4, 0, -1441551, 7, 0, -1376146, 0, 0, -1376131, 0, 0, -1376051, 0, 0, -1376050, 0, 0, -1376049, 4, 0, -1376015, 7, 0, -1310610, 0, 0, -1310595, 0, 0, -1310515, 0, 0, -1310514, 0, 0, -1310481, 7, 0, -1310479, 7, 0, -1245074, 0, 0, -1245059, 0, 0, -1244950, 0, 0, -1244949, 0, 0, -1244948, 0, 0, -1244947, 0, 0, -1244946, 0, 0, -1244945, 7, 0, -1244943, 7, 0, -1179538, 0, 0, -1179427, 0, 0, -1179426, 0, 0, -1179425, 0, 0, -1179424, 0, 0, -1179423, 0, 0, -1179422, 0, 0, -1179421, 0, 0, -1179420, 0, 0, -1179419, 0, 0, -1179418, 0, 0, -1179417, 0, 0, -1179416, 0, 0, -1179415, 0, 0, -1179414, 0, 0, -1179413, 0, 0, -1179412, 0, 0, -1179411, 0, 0, -1179410, 0, 0, -1179409, 7, 0, -1179407, 7, 0, -1114002, 0, 0, -1113892, 0, 0, -1113891, 0, 0, -1113890, 0, 0, -1113889, 0, 0, -1113888, 0, 0, -1113887, 0, 0, -1113886, 0, 0, -1113885, 0, 0, -1113884, 0, 0, -1113883, 0, 0, -1113882, 0, 0, -1113881, 0, 0, -1113880, 0, 0, -1113879, 0, 0, -1113878, 0, 0, -1113873, 7, 0, -1113871, 7, 0, -1048466, 0, 0, -1048454, 0, 0, -1048453, 0, 0, -1048452, 0, 0, -1048451, 0, 0, -1048450, 0, 0, -1048449, 0, 0, -1048448, 0, 0, -1048447, 0, 0, -1048446, 0, 0, -1048445, 0, 0, -1048444, 0, 0, -1048443, 0, 0, -1048442, 0, 0, -1048441, 0, 0, -1048440, 0, 0, -1048439, 0, 0, -1048438, 0, 0, -1048437, 0, 0, -1048436, 0, 0, -1048435, 0, 0, -1048434, 0, 0, -1048433, 0, 0, -1048432, 0, 0, -1048431, 0, 0, -1048430, 0, 0, -1048429, 0, 0, -1048428, 0, 0, -1048427, 0, 0, -1048426, 0, 0, -1048425, 0, 0, -1048424, 0, 0, -1048423, 0, 0, -1048422, 0, 0, -1048421, 0, 0, -1048420, 0, 0, -1048419, 0, 0, -1048418, 0, 0, -1048417, 0, 0, -1048416, 0, 0, -1048415, 0, 0, -1048414, 0, 0, -1048413, 0, 0, -1048412, 0, 0, -1048411, 0, 0, -1048410, 0, 0, -1048409, 0, 0, -1048408, 0, 0, -1048407, 0, 0, -1048406, 0, 0, -1048405, 0, 0, -1048404, 0, 0, -1048403, 0, 0, -1048402, 0, 0, -1048401, 0, 0, -1048400, 0, 0, -1048399, 0, 0, -1048398, 0, 0, -1048397, 0, 0, -1048396, 0, 0, -1048395, 0, 0, -1048394, 0, 0, -1048393, 0, 0, -1048392, 0, 0, -1048391, 0, 0, -1048390, 0, 0, -1048389, 0, 0, -1048388, 0, 0, -1048387, 0, 0, -1048386, 0, 0, -1048385, 0, 0, -1048384, 0, 0, -1048383, 0, 0, -1048382, 0, 0, -1048381, 0, 0, -1048380, 0, 0, -1048379, 0, 0, -1048378, 0, 0, -1048377, 0, 0, -1048376, 0, 0, -1048375, 0, 0, -1048374, 0, 0, -1048373, 0, 0, -1048372, 0, 0, -1048371, 0, 0, -1048370, 0, 0, -1048369, 0, 0, -1048368, 0, 0, -1048367, 0, 0, -1048366, 0, 0, -1048365, 0, 0, -1048364, 0, 0, -1048363, 0, 0, -1048362, 0, 0, -1048361, 0, 0, -1048360, 0, 0, -1048359, 0, 0, -1048358, 0, 0, -1048357, 0, 0, -1048356, 0, 0, -1048355, 0, 0, -1048354, 0, 0, -1048353, 0, 0, -1048352, 0, 0, -1048351, 0, 0, -1048350, 0, 0, -1048349, 0, 0, -1048348, 0, 0, -1048347, 0, 0, -1048346, 0, 0, -1048345, 0, 0, -1048344, 0, 0, -1048343, 0, 0, -1048342, 0, 0, -1048335, 7, 0, -982930, 0, 0, -982917, 3, 0, -982916, 2, 0, -982915, 0, 0, -982844, 0, 0, -982843, 0, 0, -982842, 0, 0, -982841, 0, 0, -982840, 0, 0, -982839, 0, 0, -982838, 0, 0, -982837, 0, 0, -982836, 0, 0, -982835, 0, 0, -982834, 0, 0, -982833, 0, 0, -982832, 0, 0, -982831, 0, 0, -982830, 0, 0, -982829, 0, 0, -982828, 0, 0, -982827, 0, 0, -982826, 0, 0, -982825, 0, 0, -982824, 0, 0, -982823, 0, 0, -982822, 0, 0, -982821, 0, 0, -982820, 0, 0, -982819, 0, 0, -982818, 0, 0, -982817, 0, 0, -982816, 0, 0, -982815, 0, 0, -982814, 0, 0, -982813, 0, 0, -982812, 0, 0, -982811, 0, 0, -982810, 0, 0, -982809, 0, 0, -982808, 0, 0, -982807, 0, 0, -982806, 0, 0, -917394, 0, 0, -917387, 1, 0, -917380, 3, 0, -917379, 0, 0, -917308, 0, 0, -917307, 0, 0, -917306, 0, 0, -917305, 0, 0, -917304, 0, 0, -917303, 0, 0, -917302, 0, 0, -917301, 0, 0, -917300, 0, 0, -917299, 0, 0, -917298, 0, 0, -917297, 0, 0, -917296, 0, 0, -917295, 0, 0, -917294, 0, 0, -917293, 0, 0, -917292, 0, 0, -917291, 0, 0, -917290, 0, 0, -917289, 0, 0, -917288, 0, 0, -917287, 0, 0, -917286, 0, 0, -917285, 0, 0, -917284, 0, 0, -917283, 0, 0, -917282, 0, 0, -917281, 0, 0, -917280, 0, 0, -917279, 0, 0, -917278, 0, 0, -917277, 0, 0, -917276, 0, 0, -917275, 0, 0, -917274, 0, 0, -917273, 0, 0, -917272, 0, 0, -917271, 0, 0, -917270, 0, 0, -851858, 0, 0, -851852, 0, 0, -851843, 0, 0, -851772, 0, 0, -851771, 0, 0, -851770, 0, 0, -851769, 0, 0, -851768, 0, 0, -851767, 0, 0, -851766, 0, 0, -851765, 0, 0, -851764, 0, 0, -851763, 0, 0, -851762, 0, 0, -851761, 0, 0, -851760, 0, 0, -851759, 0, 0, -851758, 0, 0, -851757, 0, 0, -851756, 0, 0, -851755, 0, 0, -851754, 0, 0, -851753, 0, 0, -851752, 0, 0, -851751, 0, 0, -851750, 0, 0, -851749, 0, 0, -851748, 0, 0, -851747, 0, 0, -851746, 0, 0, -851745, 0, 0, -851744, 0, 0, -851743, 0, 0, -851742, 0, 0, -851741, 0, 0, -851740, 0, 0, -851739, 0, 0, -851738, 0, 0, -851737, 0, 0, -851736, 0, 0, -851735, 0, 0, -851734, 0, 0, -786322, 0, 0, -786317, 0, 0, -786316, 0, 0, -786307, 0, 0, -786236, 0, 0, -786235, 0, 0, -786234, 0, 0, -786233, 0, 0, -786232, 0, 0, -786231, 0, 0, -786230, 0, 0, -786229, 0, 0, -786228, 0, 0, -786227, 0, 0, -786226, 0, 0, -786225, 0, 0, -786224, 0, 0, -786223, 0, 0, -786222, 0, 0, -786221, 0, 0, -786220, 0, 0, -786219, 0, 0, -786218, 0, 0, -786217, 0, 0, -786216, 0, 0, -786215, 0, 0, -786214, 0, 0, -786213, 0, 0, -786212, 0, 0, -786211, 0, 0, -786210, 0, 0, -786209, 0, 0, -786208, 0, 0, -786207, 0, 0, -786206, 0, 0, -786205, 0, 0, -786204, 0, 0, -786203, 0, 0, -786202, 0, 0, -786201, 0, 0, -786200, 0, 0, -786199, 0, 0, -786198, 0, 0, -720786, 0, 0, -720785, 0, 0, -720784, 0, 0, -720783, 0, 0, -720782, 0, 0, -720781, 0, 0, -720780, 0, 0, -720779, 2, 0, -720771, 0, 0, -720700, 0, 0, -720699, 0, 0, -720698, 0, 0, -720697, 0, 0, -720696, 0, 0, -720695, 0, 0, -720694, 0, 0, -720693, 0, 0, -720692, 0, 0, -720691, 0, 0, -720690, 0, 0, -720689, 0, 0, -720688, 0, 0, -720687, 0, 0, -720686, 0, 0, -720685, 0, 0, -720684, 0, 0, -720683, 0, 0, -720682, 0, 0, -720681, 0, 0, -720680, 0, 0, -720679, 0, 0, -720678, 0, 0, -720677, 0, 0, -720676, 0, 0, -720675, 0, 0, -720674, 0, 0, -720673, 0, 0, -720672, 0, 0, -720671, 0, 0, -720670, 0, 0, -720669, 0, 0, -720668, 0, 0, -720667, 0, 0, -720666, 0, 0, -720665, 0, 0, -720664, 0, 0, -720663, 0, 0, -720662, 0, 0, -655250, 0, 0, -655249, 0, 0, -655248, 0, 0, -655247, 0, 0, -655246, 4, 0, -655243, 3, 0, -655235, 0, 0, -655164, 0, 0, -655163, 4, 0, -655148, 3, 0, -655147, 0, 0, -655146, 0, 0, -655145, 0, 0, -655144, 0, 0, -655143, 0, 0, -655142, 0, 0, -655141, 0, 0, -655140, 0, 0, -655139, 0, 0, -655138, 0, 0, -655137, 0, 0, -655136, 0, 0, -655135, 0, 0, -655134, 0, 0, -655133, 0, 0, -655132, 0, 0, -655131, 0, 0, -655130, 0, 0, -655129, 0, 0, -655128, 0, 0, -655127, 0, 0, -655126, 0, 0, -589714, 0, 0, -589713, 0, 0, -589712, 0, 0, -589711, 0, 0, -589701, 0, 0, -589700, 0, 0, -589699, 0, 0, -589628, 0, 0, -589611, 3, 0, -589610, 0, 0, -589609, 0, 0, -589608, 0, 0, -589607, 0, 0, -589606, 0, 0, -589605, 0, 0, -589604, 0, 0, -589603, 0, 0, -589602, 0, 0, -589595, 0, 0, -589594, 0, 0, -589593, 0, 0, -589592, 0, 0, -589591, 0, 0, -589590, 0, 0, -589589, 0, 0, -589588, 2, 0, -458757, 0, 0, -458755, 8, 0, -458754, 7, 0, -524288, 0, 0, -524178, 0, 0, -524177, 0, 0, -524176, 0, 0, -524175, 0, 0, -524166, 0, 0, -524165, 4, 0, -524164, 3, 0, -524163, 0, 0, -524092, 0, 0, -524073, 0, 0, -524072, 0, 0, -524054, 0, 0, -524053, 0, 0, -524052, 0, 0, -393221, 0, 0, -393220, 0, 0, -393219, 0, 0, -393218, 0, 0, -393217, 0, 0, -458752, 0, 0, -458642, 0, 0, -458641, 0, 0, -458640, 0, 0, -458639, 0, 0, -458631, 0, 0, -458630, 4, 0, -458627, 0, 0, -458556, 0, 0, -458537, 0, 0, -327685, 3, 0, -327684, 0, 0, -327683, 0, 0, -327682, 0, 0, -327681, 0, 0, -393216, 4, 0, -393106, 0, 0, -393105, 0, 0, -393104, 0, 0, -393103, 0, 0, -393096, 0, 0, -393095, 4, 0, -393091, 0, 0, -393020, 0, 0, -393001, 9, 0, -262148, 0, 0, -262147, 0, 0, -262146, 0, 0, -262145, 0, 0, -327570, 0, 0, -327569, 0, 0, -327568, 0, 0, -327567, 0, 0, -327561, 0, 0, -327560, 4, 0, -327555, 0, 0, -327484, 0, 0, -327477, 0, 0, -327476, 2, 0, -327471, 8, 0, -196612, 0, 0, -196611, 0, 0, -196610, 0, 0, -196609, 0, 0, -262034, 0, 0, -262033, 0, 0, -262032, 0, 0, -262031, 0, 0, -262019, 0, 0, -261948, 0, 0, -261947, 0, 0, -261946, 0, 0, -261945, 0, 0, -261944, 0, 0, -261943, 0, 0, -261942, 0, 0, -261941, 0, 0, -261940, 0, 0, -261930, 0, 0, -261929, 0, 0, -261928, 0, 0, -261923, 8, 0, -261922, 0, 0, -261921, 7, 0, -261915, 0, 0, -261910, 0, 0, -261907, 0, 0, -261906, 0, 0, -131076, 0, 0, -131075, 0, 0, -131074, 0, 0, -131073, 4, 0, -196498, 0, 0, -196497, 0, 0, -196496, 0, 0, -196495, 4, 0, -196483, 0, 0, -196412, 0, 0, -196411, 0, 0, -196410, 0, 0, -196409, 0, 0, -196408, 0, 0, -196407, 0, 0, -196406, 0, 0, -196405, 0, 0, -196404, 0, 0, -196403, 0, 0, -196402, 0, 0, -196401, 0, 0, -196400, 0, 0, -196399, 0, 0, -196398, 0, 0, -196397, 0, 0, -196396, 0, 0, -196395, 0, 0, -196394, 0, 0, -196393, 0, 0, -196392, 0, 0, -196391, 0, 0, -196390, 0, 0, -196389, 0, 0, -196388, 0, 0, -196387, 0, 0, -196386, 0, 0, -196385, 0, 0, -196384, 0, 0, -196383, 0, 0, -196382, 0, 0, -196381, 0, 0, -196380, 0, 0, -196379, 0, 0, -196378, 0, 0, -196377, 0, 0, -196376, 0, 0, -196375, 0, 0, -196374, 0, 0, -196373, 0, 0, -196372, 0, 0, -196371, 0, 0, -196370, 4, 0, -65540, 0, 0, -65539, 0, 0, -65538, 0, 0, -130962, 0, 0, -130958, 1, 0, -130957, 0, 0, -130956, 0, 0, -130955, 0, 0, -130954, 0, 0, -130953, 0, 0, -130947, 0, 0, -130876, 0, 0, -130875, 0, 0, -130874, 0, 0, -130873, 0, 0, -130872, 0, 0, -130871, 0, 0, -130870, 0, 0, -130869, 0, 0, -130868, 0, 0, -130867, 0, 0, -130866, 0, 0, -130865, 0, 0, -130864, 0, 0, -130863, 0, 0, -130862, 0, 0, -130861, 0, 0, -130860, 0, 0, -130859, 0, 0, -130858, 0, 0, -130857, 0, 0, -130856, 0, 0, -130855, 0, 0, -130854, 0, 0, -130853, 0, 0, -130852, 0, 0, -130851, 0, 0, -130850, 0, 0, -130849, 0, 0, -130848, 0, 0, -130847, 0, 0, -130846, 0, 0, -130845, 0, 0, -130844, 0, 0, -130843, 0, 0, -130842, 0, 0, -130841, 0, 0, -130840, 0, 0, -130839, 0, 0, -130838, 0, 0, -130837, 0, 0, -130836, 0, 0, -130835, 4, 0, -4, 0, 0, -3, 0, 0, -2, 0, 0, -65504, 0, 0, -65426, 0, 0, -65422, 3, 0, -65421, 0, 0, -65420, 0, 0, -65419, 0, 0, -65418, 0, 0, -65417, 0, 0, -65416, 4, 0, -65411, 0, 0, -65302, 0, 0, 65532, 0, 0, 65533, 0, 0, 65534, 0, 0, 31, 8, 0, 32, 0, 0, 110, 0, 0, 115, 3, 0, 116, 0, 0, 117, 0, 0, 118, 0, 0, 119, 0, 0, 125, 0, 0, 234, 0, 0, 131068, 0, 0, 131069, 0, 0, 131070, 0, 0, 131071, 0, 0, 65536, 0, 0, 65537, 0, 0, 65538, 0, 0, 65539, 15, 0, 65559, 1, 0, 65560, 2, 0, 65561, 1, 0, 65567, 8, 0, 65568, 4, 0, 65646, 0, 0, 65647, 0, 0, 65652, 0, 0, 65653, 0, 0, 65654, 0, 0, 65655, 4, 0, 65661, 0, 0, 65770, 0, 0, 196604, 0, 0, 196605, 0, 0, 196606, 0, 0, 196607, 0, 0, 131072, 1, 0, 131073, 4, 0, 131095, 3, 0, 131096, 0, 0, 131097, 0, 0, 131098, 2, 0, 131103, 8, 0, 131118, 1, 0, 131119, 0, 0, 131120, 2, 0, 131182, 0, 0, 131188, 0, 0, 131189, 0, 0, 131190, 0, 0, 131197, 0, 0, 131306, 0, 0, 262140, 0, 0, 262141, 0, 0, 262142, 0, 0, 262143, 0, 0, 196608, 4, 0, 196623, 0, 0, 196625, 0, 0, 196627, 0, 0, 196633, 3, 0, 196634, 0, 0, 196635, 2, 0, 196639, 8, 0, 196654, 0, 0, 196655, 0, 0, 196656, 0, 0, 196718, 0, 0, 196723, 1, 0, 196733, 0, 0, 196842, 0, 0, 327676, 0, 0, 327677, 0, 0, 327678, 0, 0, 327679, 0, 0, 262159, 0, 0, 262160, 0, 0, 262161, 0, 0, 262162, 0, 0, 262163, 0, 0, 262169, 1, 0, 262170, 0, 0, 262171, 0, 0, 262175, 8, 0, 262189, 0, 0, 262191, 0, 0, 262193, 0, 0, 262266, 0, 0, 262267, 0, 0, 262268, 0, 0, 262269, 0, 0, 262378, 0, 0, 393212, 0, 0, 393213, 0, 0, 393214, 0, 0, 393215, 0, 0, 327695, 3, 0, 327696, 0, 0, 327697, 0, 0, 327698, 0, 0, 327699, 0, 0, 327704, 1, 0, 327705, 0, 0, 327706, 0, 0, 327707, 0, 0, 327708, 0, 0, 327709, 2, 0, 327711, 8, 0, 327725, 3, 0, 327726, 0, 0, 327727, 0, 0, 327728, 0, 0, 327729, 4, 0, 327801, 0, 0, 327802, 0, 0, 327803, 0, 0, 327804, 0, 0, 327805, 0, 0, 327914, 0, 0, 458748, 0, 0, 458749, 0, 0, 458750, 0, 0, 458751, 0, 0, 393232, 0, 0, 393233, 0, 0, 393234, 0, 0, 393235, 0, 0, 393239, 8, 0, 393240, 0, 0, 393241, 0, 0, 393242, 0, 0, 393243, 0, 0, 393244, 0, 0, 393245, 0, 0, 393247, 8, 0, 393248, 2, 0, 393262, 0, 0, 393263, 0, 0, 393264, 0, 0, 393336, 0, 0, 393337, 0, 0, 393338, 0, 0, 393339, 0, 0, 393340, 0, 0, 393341, 0, 0, 393450, 0, 0, 524284, 0, 0, 524285, 0, 0, 524286, 0, 0, 524287, 0, 0, 458752, 0, 0, 458754, 0, 0, 458756, 0, 0, 458758, 0, 0, 458760, 0, 0, 458762, 7, 0, 458768, 3, 0, 458769, 0, 0, 458770, 0, 0, 458771, 0, 0, 458772, 0, 0, 458774, 0, 0, 458775, 8, 0, 458776, 0, 0, 458777, 0, 0, 458778, 0, 0, 458779, 0, 0, 458780, 0, 0, 458781, 0, 0, 458783, 8, 0, 458784, 0, 0, 458785, 2, 0, 458798, 0, 0, 458799, 0, 0, 458800, 0, 0, 458855, 0, 0, 458856, 0, 0, 458857, 0, 0, 458859, 0, 0, 458861, 0, 0, 458862, 0, 0, 458863, 0, 0, 458864, 0, 0, 458865, 0, 0, 458866, 0, 0, 458867, 0, 0, 458868, 0, 0, 458869, 0, 0, 458870, 0, 0, 458871, 0, 0, 458872, 0, 0, 458873, 0, 0, 458874, 0, 0, 458875, 0, 0, 458876, 0, 0, 458877, 0, 0, 458986, 0, 0, 589820, 0, 0, 589821, 0, 0, 589822, 0, 0, 589823, 0, 0, 524288, 0, 0, 524289, 0, 0, 524290, 0, 0, 524291, 0, 0, 524292, 0, 0, 524293, 0, 0, 524294, 0, 0, 524295, 0, 0, 524296, 0, 0, 524297, 0, 0, 524298, 7, 0, 524304, 1, 0, 524305, 0, 0, 524306, 0, 0, 524307, 0, 0, 524308, 0, 0, 524309, 0, 0, 524310, 0, 0, 524311, 0, 0, 524312, 0, 0, 524313, 0, 0, 524314, 0, 0, 524315, 0, 0, 524316, 0, 0, 524317, 0, 0, 524318, 0, 0, 524319, 0, 0, 524320, 0, 0, 524321, 0, 0, 524322, 4, 0, 524333, 17, 0, 524334, 0, 0, 524335, 0, 0, 524336, 0, 0, 524337, 15, 0, 524391, 3, 0, 524392, 0, 0, 524393, 0, 0, 524394, 0, 0, 524395, 0, 0, 524396, 0, 0, 524397, 0, 0, 524522, 0, 0, 655356, 0, 0, 655357, 0, 0, 655358, 0, 0, 655359, 0, 0, 589824, 0, 0, 589825, 0, 0, 589826, 0, 0, 589827, 0, 0, 589828, 0, 0, 589829, 0, 0, 589830, 0, 0, 589831, 0, 0, 589832, 0, 0, 589833, 0, 0, 589834, 0, 0, 589835, 2, 0, 589840, 0, 0, 589841, 0, 0, 589842, 0, 0, 589843, 0, 0, 589844, 0, 0, 589845, 0, 0, 589846, 0, 0, 589847, 0, 0, 589848, 0, 0, 589849, 0, 0, 589850, 0, 0, 589851, 0, 0, 589852, 0, 0, 589853, 0, 0, 589854, 0, 0, 589855, 0, 0, 589856, 0, 0, 589857, 4, 0, 589870, 0, 0, 589871, 0, 0, 589872, 0, 0, 589891, 7, 0, 589928, 0, 0, 720892, 0, 0, 720893, 0, 0, 720894, 0, 0, 720895, 0, 0, 655360, 0, 0, 655361, 0, 0, 655362, 0, 0, 655363, 0, 0, 655364, 0, 0, 655365, 0, 0, 655366, 0, 0, 655367, 0, 0, 655368, 0, 0, 655369, 0, 0, 655370, 0, 0, 655371, 0, 0, 655375, 1, 0, 655376, 0, 0, 655377, 0, 0, 655378, 0, 0, 655379, 0, 0, 655380, 0, 0, 655381, 0, 0, 655382, 0, 0, 655383, 0, 0, 655384, 0, 0, 655385, 0, 0, 655386, 0, 0, 655387, 0, 0, 655388, 0, 0, 655389, 0, 0, 655390, 0, 0, 655391, 0, 0, 655392, 4, 0, 655402, 7, 0, 655406, 0, 0, 655407, 0, 0, 655408, 0, 0, 655427, 7, 0, 655464, 0, 0, 786428, 0, 0, 786429, 0, 0, 786430, 0, 0, 786431, 0, 0, 720896, 0, 0, 720897, 0, 0, 720898, 0, 0, 720899, 0, 0, 720900, 0, 0, 720901, 0, 0, 720902, 0, 0, 720903, 0, 0, 720904, 0, 0, 720905, 0, 0, 720906, 0, 0, 720907, 0, 0, 720908, 2, 0, 720910, 1, 0, 720911, 0, 0, 720912, 0, 0, 720913, 0, 0, 720914, 0, 0, 720915, 0, 0, 720916, 0, 0, 720917, 0, 0, 720918, 0, 0, 720919, 4, 0, 720921, 3, 0, 720922, 0, 0, 720923, 0, 0, 720924, 0, 0, 720925, 0, 0, 720926, 0, 0, 720927, 4, 0, 720933, 2, 0, 720938, 7, 0, 720942, 0, 0, 720943, 0, 0, 720944, 0, 0, 720949, 10, 0, 720950, 10, 0, 720951, 10, 0, 720952, 10, 0, 720953, 10, 0, 720954, 10, 0, 720955, 10, 0, 720956, 10, 0, 720963, 7, 0, 720971, 10, 0, 720972, 10, 0, 720983, 10, 0, 720984, 10, 0, 721000, 0, 0, 851964, 0, 0, 851965, 0, 0, 851966, 0, 0, 851967, 0, 0, 786432, 0, 0, 786433, 0, 0, 786434, 0, 0, 786435, 0, 0, 786436, 0, 0, 786437, 0, 0, 786438, 0, 0, 786439, 0, 0, 786440, 0, 0, 786441, 0, 0, 786442, 0, 0, 786443, 0, 0, 786444, 0, 0, 786445, 0, 0, 786446, 0, 0, 786447, 0, 0, 786448, 0, 0, 786449, 0, 0, 786450, 0, 0, 786451, 0, 0, 786452, 0, 0, 786453, 0, 0, 786454, 4, 0, 786458, 3, 0, 786459, 0, 0, 786460, 0, 0, 786461, 0, 0, 786462, 0, 0, 786463, 2, 0, 786469, 0, 0, 786474, 7, 0, 786478, 0, 0, 786479, 0, 0, 786480, 0, 0, 786486, 3, 0, 786487, 0, 0, 786488, 4, 0, 786490, 3, 0, 786491, 0, 0, 786492, 4, 0, 786499, 7, 0, 786507, 3, 0, 786508, 0, 0, 786519, 0, 0, 786520, 4, 0, 786536, 0, 0, 917500, 0, 0, 917501, 0, 0, 917502, 0, 0, 917503, 0, 0, 851968, 0, 0, 851969, 0, 0, 851970, 0, 0, 851971, 0, 0, 851972, 0, 0, 851973, 0, 0, 851974, 0, 0, 851975, 0, 0, 851976, 0, 0, 851977, 0, 0, 851978, 0, 0, 851979, 0, 0, 851980, 0, 0, 851981, 0, 0, 851982, 0, 0, 851983, 0, 0, 851984, 0, 0, 851985, 0, 0, 851986, 0, 0, 851987, 0, 0, 851988, 0, 0, 851989, 4, 0, 851995, 3, 0, 851996, 0, 0, 851997, 0, 0, 851998, 0, 0, 851999, 0, 0, 852000, 2, 0, 852004, 1, 0, 852005, 0, 0, 852010, 7, 0, 852014, 0, 0, 852015, 0, 0, 852016, 0, 0, 852023, 0, 0, 852027, 0, 0, 852035, 7, 0, 852044, 0, 0, 852053, 0, 0, 852054, 0, 0, 852055, 0, 0, 852072, 0, 0, 983036, 0, 0, 983037, 0, 0, 983038, 0, 0, 983039, 0, 0, 917504, 0, 0, 917505, 0, 0, 917506, 0, 0, 917507, 0, 0, 917508, 0, 0, 917509, 0, 0, 917510, 0, 0, 917511, 0, 0, 917512, 0, 0, 917513, 0, 0, 917514, 0, 0, 917515, 0, 0, 917516, 0, 0, 917517, 0, 0, 917518, 0, 0, 917519, 0, 0, 917520, 0, 0, 917521, 0, 0, 917522, 0, 0, 917523, 0, 0, 917524, 0, 0, 917532, 0, 0, 917533, 0, 0, 917534, 0, 0, 917535, 0, 0, 917536, 0, 0, 917540, 0, 0, 917541, 4, 0, 917546, 7, 0, 917550, 0, 0, 917551, 0, 0, 917552, 0, 0, 917559, 0, 0, 917563, 0, 0, 917566, 3, 0, 917567, 5, 0, 917569, 0, 0, 917570, 0, 0, 917571, 0, 0, 917572, 0, 0, 917573, 0, 0, 917574, 0, 0, 917575, 0, 0, 917576, 0, 0, 917577, 4, 0, 917580, 0, 0, 917581, 0, 0, 917582, 0, 0, 917583, 0, 0, 917584, 0, 0, 917585, 0, 0, 917586, 0, 0, 917587, 0, 0, 917588, 0, 0, 917589, 0, 0, 917590, 0, 0, 917591, 0, 0, 917598, 10, 0, 917607, 1, 0, 917608, 0, 0, 1048572, 0, 0, 1048573, 0, 0, 1048574, 0, 0, 1048575, 0, 0, 983040, 0, 0, 983041, 0, 0, 983042, 0, 0, 983043, 0, 0, 983044, 0, 0, 983045, 0, 0, 983046, 0, 0, 983047, 0, 0, 983048, 0, 0, 983049, 0, 0, 983050, 0, 0, 983051, 0, 0, 983052, 0, 0, 983053, 0, 0, 983054, 0, 0, 983055, 0, 0, 983056, 0, 0, 983057, 0, 0, 983058, 0, 0, 983059, 0, 0, 983060, 0, 0, 983071, 0, 0, 983072, 4, 0, 983076, 0, 0, 983082, 7, 0, 983086, 0, 0, 983087, 0, 0, 983088, 0, 0, 983095, 0, 0, 983099, 0, 0, 983105, 0, 0, 983106, 0, 0, 983107, 0, 0, 983108, 0, 0, 983109, 0, 0, 983110, 0, 0, 983111, 0, 0, 983112, 0, 0, 983116, 0, 0, 983117, 0, 0, 983118, 0, 0, 983119, 0, 0, 983120, 0, 0, 983121, 0, 0, 983122, 0, 0, 983123, 0, 0, 983124, 0, 0, 983125, 0, 0, 983126, 0, 0, 983127, 0, 0, 983134, 0, 0, 983143, 0, 0, 983144, 0, 0, 1114108, 0, 0, 1114109, 0, 0, 1114110, 0, 0, 1114111, 0, 0, 1048576, 0, 0, 1048577, 0, 0, 1048578, 0, 0, 1048579, 0, 0, 1048580, 0, 0, 1048581, 0, 0, 1048582, 0, 0, 1048583, 0, 0, 1048584, 0, 0, 1048585, 0, 0, 1048586, 0, 0, 1048587, 0, 0, 1048588, 0, 0, 1048589, 0, 0, 1048590, 0, 0, 1048591, 0, 0, 1048592, 0, 0, 1048593, 0, 0, 1048594, 0, 0, 1048595, 0, 0, 1048596, 0, 0, 1048612, 0, 0, 1048618, 7, 0, 1048622, 0, 0, 1048623, 0, 0, 1048624, 0, 0, 1048631, 0, 0, 1048635, 0, 0, 1048639, 5, 0, 1048641, 0, 0, 1048642, 0, 0, 1048643, 0, 0, 1048644, 0, 0, 1048645, 0, 0, 1048646, 0, 0, 1048647, 5, 0, 1048652, 0, 0, 1048653, 0, 0, 1048654, 0, 0, 1048655, 0, 0, 1048656, 0, 0, 1048657, 0, 0, 1048658, 0, 0, 1048659, 0, 0, 1048660, 0, 0, 1048661, 0, 0, 1048662, 0, 0, 1048663, 0, 0, 1048670, 0, 0, 1048677, 1, 0, 1048678, 0, 0, 1048679, 0, 0, 1048680, 0, 0, 1179644, 0, 0, 1179645, 0, 0, 1179646, 0, 0, 1179647, 0, 0, 1114112, 0, 0, 1114113, 0, 0, 1114114, 0, 0, 1114115, 0, 0, 1114116, 0, 0, 1114117, 0, 0, 1114118, 0, 0, 1114119, 0, 0, 1114120, 0, 0, 1114121, 0, 0, 1114122, 0, 0, 1114123, 0, 0, 1114124, 0, 0, 1114125, 0, 0, 1114126, 0, 0, 1114127, 0, 0, 1114128, 0, 0, 1114129, 0, 0, 1114130, 0, 0, 1114131, 0, 0, 1114132, 0, 0, 1114148, 0, 0, 1114154, 7, 0, 1114158, 0, 0, 1114159, 0, 0, 1114160, 0, 0, 1114167, 0, 0, 1114171, 0, 0, 1114177, 0, 0, 1114178, 0, 0, 1114179, 0, 0, 1114180, 0, 0, 1114181, 0, 0, 1114182, 0, 0, 1114188, 0, 0, 1114189, 0, 0, 1114190, 0, 0, 1114191, 0, 0, 1114192, 0, 0, 1114193, 0, 0, 1114194, 0, 0, 1114195, 0, 0, 1114196, 0, 0, 1114197, 0, 0, 1114198, 0, 0, 1114199, 0, 0, 1114200, 0, 0, 1114201, 0, 0, 1114202, 0, 0, 1114203, 0, 0, 1114204, 0, 0, 1114205, 0, 0, 1114206, 0, 0, 1114207, 0, 0, 1114208, 0, 0, 1114209, 0, 0, 1114210, 0, 0, 1114211, 0, 0, 1114212, 0, 0, 1114213, 0, 0, 1114214, 0, 0, 1114215, 0, 0, 1114216, 0, 0, 1245180, 0, 0, 1245181, 0, 0, 1245182, 0, 0, 1245183, 0, 0, 1179648, 0, 0, 1179649, 0, 0, 1179650, 0, 0, 1179651, 0, 0, 1179652, 0, 0, 1179653, 0, 0, 1179654, 0, 0, 1179655, 0, 0, 1179656, 0, 0, 1179657, 0, 0, 1179658, 0, 0, 1179659, 0, 0, 1179660, 0, 0, 1179661, 0, 0, 1179662, 0, 0, 1179663, 0, 0, 1179664, 0, 0, 1179665, 0, 0, 1179666, 0, 0, 1179667, 0, 0, 1179668, 0, 0, 1179684, 0, 0, 1179694, 0, 0, 1179695, 0, 0, 1179696, 0, 0, 1179711, 0, 0, 1179712, 0, 0, 1179713, 0, 0, 1179714, 0, 0, 1179715, 0, 0, 1179716, 0, 0, 1179717, 0, 0, 1179718, 0, 0, 1179719, 0, 0, 1179720, 0, 0, 1179724, 0, 0, 1179725, 0, 0, 1179726, 0, 0, 1179727, 0, 0, 1179728, 0, 0, 1179729, 0, 0, 1179730, 0, 0, 1179731, 0, 0, 1179732, 0, 0, 1179733, 0, 0, 1179734, 0, 0, 1179735, 0, 0, 1179736, 0, 0, 1179737, 0, 0, 1179738, 0, 0, 1179739, 0, 0, 1179740, 0, 0, 1179741, 0, 0, 1179742, 0, 0, 1179743, 0, 0, 1179744, 0, 0, 1179745, 0, 0, 1179746, 0, 0, 1179747, 0, 0, 1179748, 0, 0, 1179749, 0, 0, 1179750, 0, 0, 1179751, 0, 0, 1179752, 0, 0 )

[node name="BackgroundTiles" parent="." index="5" instance=ExtResource( 6 )]

tile_data = PoolIntArray( -3407646, 13, 0, -3407645, 12, 0, -3407644, 15, 0, -3342111, 13, 0, -3342110, 12, 0, -3342109, 12, 0, -3342108, 12, 0, -3342107, 15, 0, -3276576, 13, 0, -3276575, 12, 0, -3276574, 12, 0, -3276573, 12, 0, -3276572, 12, 0, -3276571, 12, 0, -3276570, 15, 0, -3211041, 13, 0, -3211040, 12, 0, -3211039, 12, 0, -3211038, 12, 0, -3211037, 12, 0, -3211036, 12, 0, -3211035, 12, 0, -3211034, 12, 0, -3211033, 15, 0, -3145505, 12, 0, -3145504, 12, 0, -3145503, 12, 0, -3145502, 12, 0, -3145501, 12, 0, -3145500, 12, 0, -3145499, 12, 0, -3145498, 12, 0, -3145497, 12, 0, -3079969, 12, 0, -3079968, 12, 0, -3079967, 12, 0, -3079966, 12, 0, -3079965, 12, 0, -3079964, 12, 0, -3079963, 12, 0, -3079962, 12, 0, -3079961, 12, 0, -3079959, 13, 0, -3079958, 12, 0, -3014432, 12, 0, -3014430, 12, 0, -3014428, 12, 0, -3014426, 12, 0, -3014423, 12, 0, -3014422, 12, 0, -2948887, 12, 0, -2948886, 12, 0, -2621323, 13, 0, -2621322, 15, 0, -2555788, 13, 0, -2555787, 12, 0, -2555786, 12, 0, -2555785, 15, 0, -2490253, 13, 0, -2490252, 12, 0, -2490251, 12, 0, -2490250, 12, 0, -2490249, 12, 0, -2490248, 15, 0, -2424718, 13, 0, -2424717, 12, 0, -2424716, 12, 0, -2424715, 12, 0, -2424714, 12, 0, -2424713, 12, 0, -2424712, 12, 0, -2424711, 15, 0, -2359183, 13, 0, -2359182, 12, 0, -2359181, 12, 0, -2359180, 12, 0, -2359179, 12, 0, -2359178, 12, 0, -2359177, 12, 0, -2359176, 12, 0, -2359175, 12, 0, -2359174, 15, 0, -2293648, 13, 0, -2293647, 12, 0, -2293646, 12, 0, -2293645, 12, 0, -2293644, 12, 0, -2293643, 12, 0, -2293642, 12, 0, -2293641, 12, 0, -2293640, 12, 0, -2293639, 12, 0, -2293638, 12, 0, -2293637, 15, 0, -2228113, 13, 0, -2228111, 12, 0, -2228110, 12, 0, -2228109, 12, 0, -2228108, 12, 0, -2228107, 12, 0, -2228106, 12, 0, -2228105, 12, 0, -2228104, 12, 0, -2228103, 12, 0, -2228102, 12, 0, -2228101, 12, 0, -2228100, 15, 0, -2162576, 13, 0, -2162575, 12, 0, -2162574, 12, 0, -2162571, 12, 0, -2162570, 12, 0, -2162567, 12, 0, -2162566, 12, 0, -2162565, 12, 0, -2162558, 13, 0, -2162557, 12, 0, -2162556, 12, 0, -2162555, 12, 0, -2162554, 12, 0, -2162553, 12, 0, -2162552, 12, 0, -2162551, 12, 0, -2162550, 12, 0, -2162549, 12, 0, -2162548, 12, 0, -2162547, 12, 0, -2162546, 12, 0, -2162545, 12, 0, -2162544, 12, 0, -2162543, 12, 0, -2162542, 12, 0, -2162541, 12, 0, -2162540, 12, 0, -2162539, 12, 0, -2162538, 12, 0, -2162537, 12, 0, -2162536, 12, 0, -2162535, 12, 0, -2162534, 12, 0, -2162533, 12, 0, -2162532, 12, 0, -2162531, 12, 0, -2162530, 12, 0, -2162529, 12, 0, -2162528, 12, 0, -2162527, 12, 0, -2162526, 12, 0, -2162525, 12, 0, -2162524, 12, 0, -2162523, 12, 0, -2162522, 12, 0, -2162521, 12, 0, -2162520, 12, 0, -2162519, 12, 0, -2162518, 12, 0, -2162517, 12, 0, -2162516, 12, 0, -2162515, 12, 0, -2162514, 12, 0, -2162513, 12, 0, -2162512, 12, 0, -2162511, 12, 0, -2162510, 12, 0, -2162509, 12, 0, -2162508, 15, 0, -2097023, 13, 0, -2097022, 12, 0, -2097021, 12, 0, -2097020, 12, 0, -2097019, 12, 0, -2097018, 12, 0, -2097017, 12, 0, -2097016, 12, 0, -2097015, 12, 0, -2097014, 12, 0, -2097013, 12, 0, -2097012, 12, 0, -2097011, 12, 0, -2097010, 12, 0, -2097009, 12, 0, -2097008, 12, 0, -2097007, 12, 0, -2097006, 12, 0, -2097005, 12, 0, -2097004, 12, 0, -2097003, 12, 0, -2097002, 12, 0, -2097001, 12, 0, -2097000, 12, 0, -2096999, 12, 0, -2096998, 12, 0, -2096997, 12, 0, -2096996, 16, 0, -2096994, 14, 0, -2096993, 12, 0, -2096992, 12, 0, -2096991, 12, 0, -2096990, 12, 0, -2096989, 12, 0, -2096988, 12, 0, -2096987, 12, 0, -2096986, 12, 0, -2096985, 12, 0, -2096984, 12, 0, -2096983, 12, 0, -2096982, 12, 0, -2096981, 12, 0, -2096980, 12, 0, -2096979, 12, 0, -2096978, 12, 0, -2096977, 12, 0, -2096976, 12, 0, -2096975, 12, 0, -2096974, 12, 0, -2096973, 12, 0, -2096972, 12, 0, -2096971, 15, 0, -2031488, 13, 0, -2031487, 12, 0, -2031486, 12, 0, -2031485, 12, 0, -2031484, 12, 0, -2031483, 12, 0, -2031482, 12, 0, -2031481, 12, 0, -2031480, 12, 0, -2031479, 12, 0, -2031478, 12, 0, -2031477, 12, 0, -2031476, 12, 0, -2031475, 12, 0, -2031474, 12, 0, -2031473, 12, 0, -2031472, 12, 0, -2031471, 12, 0, -2031470, 12, 0, -2031469, 12, 0, -2031468, 12, 0, -2031467, 12, 0, -2031466, 12, 0, -2031465, 12, 0, -2031464, 12, 0, -2031463, 12, 0, -2031462, 12, 0, -2031461, 16, 0, -2031457, 14, 0, -2031456, 12, 0, -2031455, 12, 0, -2031454, 12, 0, -2031453, 12, 0, -2031452, 12, 0, -2031451, 12, 0, -2031450, 12, 0, -2031449, 12, 0, -2031448, 12, 0, -2031447, 12, 0, -2031446, 12, 0, -2031445, 12, 0, -2031444, 12, 0, -2031443, 12, 0, -2031442, 12, 0, -2031441, 12, 0, -2031440, 12, 0, -2031439, 12, 0, -2031438, 12, 0, -2031437, 12, 0, -2031436, 12, 0, -2031435, 12, 0, -2031434, 15, 0, -1965953, 13, 0, -1965952, 12, 0, -1965951, 12, 0, -1965950, 12, 0, -1965949, 12, 0, -1965948, 12, 0, -1965947, 12, 0, -1965946, 12, 0, -1965945, 12, 0, -1965944, 12, 0, -1965943, 12, 0, -1965942, 12, 0, -1965941, 12, 0, -1965940, 12, 0, -1965939, 12, 0, -1965938, 12, 0, -1965937, 12, 0, -1965936, 12, 0, -1965935, 12, 0, -1965934, 12, 0, -1965933, 12, 0, -1965932, 12, 0, -1965931, 12, 0, -1965930, 12, 0, -1965929, 12, 0, -1965928, 12, 0, -1965927, 12, 0, -1965926, 16, 0, -1965920, 14, 0, -1965919, 12, 0, -1965918, 12, 0, -1965917, 12, 0, -1965916, 12, 0, -1965915, 12, 0, -1965914, 12, 0, -1965913, 12, 0, -1965912, 12, 0, -1965911, 12, 0, -1965910, 12, 0, -1965909, 12, 0, -1965908, 12, 0, -1965907, 12, 0, -1965906, 12, 0, -1965905, 12, 0, -1965904, 12, 0, -1965903, 12, 0, -1965902, 12, 0, -1965901, 12, 0, -1965900, 12, 0, -1965899, 12, 0, -1965898, 12, 0, -1965897, 15, 0, -1900416, 12, 0, -1900415, 12, 0, -1900412, 12, 0, -1900411, 12, 0, -1900408, 12, 0, -1900407, 12, 0, -1900404, 12, 0, -1900403, 12, 0, -1900400, 12, 0, -1900399, 12, 0, -1900396, 12, 0, -1900395, 12, 0, -1900393, 12, 0, -1900392, 12, 0, -1900391, 12, 0, -1900383, 12, 0, -1900382, 12, 0, -1900379, 12, 0, -1900378, 12, 0, -1900375, 12, 0, -1900374, 12, 0, -1900371, 12, 0, -1900370, 12, 0, -1900367, 12, 0, -1900366, 12, 0, -1900363, 12, 0, -1900362, 12, 0, -1900309, 12, 0, -1900308, 12, 0, -1900307, 15, 0, -1834773, 12, 0, -1834772, 12, 0, -1834771, 12, 0, -1834770, 15, 0, -1769288, 13, 0, -1769287, 12, 0, -1769286, 12, 0, -1769285, 12, 0, -1769284, 12, 0, -1769283, 12, 0, -1769282, 12, 0, -1769281, 12, 0, -1769280, 12, 0, -1769279, 12, 0, -1769278, 12, 0, -1769277, 12, 0, -1769276, 12, 0, -1769275, 12, 0, -1769274, 12, 0, -1769273, 12, 0, -1769272, 12, 0, -1769271, 12, 0, -1769270, 12, 0, -1769269, 12, 0, -1769268, 15, 0, -1769237, 12, 0, -1769236, 12, 0, -1769235, 12, 0, -1769234, 12, 0, -1769233, 15, 0, -1703804, 14, 0, -1703803, 12, 0, -1703802, 16, 0, -1703793, 14, 0, -1703792, 12, 0, -1703791, 16, 0, -1703778, 14, 0, -1703777, 12, 0, -1703776, 16, 0, -1703767, 14, 0, -1703766, 12, 0, -1703765, 16, 0, -1703756, 14, 0, -1703755, 12, 0, -1703753, 13, 0, -1703752, 12, 0, -1703751, 12, 0, -1703750, 12, 0, -1703749, 12, 0, -1703748, 12, 0, -1703747, 12, 0, -1703746, 12, 0, -1703745, 12, 0, -1703744, 12, 0, -1703743, 12, 0, -1703742, 12, 0, -1703741, 12, 0, -1703740, 12, 0, -1703739, 12, 0, -1703738, 12, 0, -1703737, 12, 0, -1703736, 12, 0, -1703735, 12, 0, -1703734, 12, 0, -1703733, 12, 0, -1703732, 12, 0, -1703731, 15, 0, -1703701, 12, 0, -1703700, 12, 0, -1703699, 12, 0, -1703698, 12, 0, -1703697, 12, 0, -1703696, 15, 0, -1638267, 12, 0, -1638256, 12, 0, -1638241, 12, 0, -1638230, 12, 0, -1638219, 12, 0, -1638217, 12, 0, -1638216, 12, 0, -1638215, 12, 0, -1638214, 12, 0, -1638213, 12, 0, -1638212, 12, 0, -1638211, 12, 0, -1638210, 12, 0, -1638209, 12, 0, -1638208, 12, 0, -1638207, 12, 0, -1638206, 12, 0, -1638205, 12, 0, -1638204, 12, 0, -1638203, 12, 0, -1638202, 12, 0, -1638201, 12, 0, -1638200, 12, 0, -1638199, 12, 0, -1638198, 12, 0, -1638197, 12, 0, -1638196, 12, 0, -1638195, 12, 0, -1638164, 12, 0, -1638163, 21, 0, -1638162, 22, 0, -1638161, 12, 0, -1572731, 12, 0, -1572720, 12, 0, -1572705, 12, 0, -1572694, 12, 0, -1572683, 12, 0, -1572679, 12, 0, -1572678, 12, 0, -1572675, 12, 0, -1572674, 12, 0, -1572671, 12, 0, -1572670, 12, 0, -1572668, 12, 0, -1572667, 12, 0, -1572664, 12, 0, -1572663, 12, 0, -1572660, 12, 0, -1572659, 12, 0, -1507195, 12, 0, -1507184, 12, 0, -1507169, 12, 0, -1507158, 12, 0, -1507147, 12, 0, -1507106, 22, 0, -1507105, 21, 0, -1507100, 22, 0, -1507099, 16, 0, -1507097, 14, 0, -1507096, 21, 0, -1441659, 12, 0, -1441648, 12, 0, -1441633, 12, 0, -1441622, 12, 0, -1441611, 12, 0, -1441610, 16, 0, -1441604, 14, 0, -1441603, 12, 0, -1441602, 16, 0, -1441596, 14, 0, -1441595, 12, 0, -1441594, 16, 0, -1441570, 22, 0, -1441569, 21, 0, -1441564, 22, 0, -1441560, 21, 0, -1376123, 12, 0, -1376112, 12, 0, -1376097, 12, 0, -1376086, 12, 0, -1376075, 12, 0, -1376067, 12, 0, -1376059, 12, 0, -1376034, 22, 0, -1376033, 21, 0, -1376028, 22, 0, -1376024, 21, 0, -1310587, 12, 0, -1310576, 12, 0, -1310569, 12, 0, -1310568, 12, 0, -1310561, 12, 0, -1310550, 12, 0, -1310539, 12, 0, -1310531, 12, 0, -1310523, 12, 0, -1310498, 22, 0, -1310497, 21, 0, -1310492, 22, 0, -1310488, 21, 0, -1245052, 13, 0, -1245051, 12, 0, -1245050, 15, 0, -1245041, 13, 0, -1245040, 12, 0, -1245039, 15, 0, -1245033, 12, 0, -1245032, 12, 0, -1245026, 13, 0, -1245025, 12, 0, -1245024, 15, 0, -1245015, 13, 0, -1245014, 12, 0, -1245013, 15, 0, -1245004, 13, 0, -1245003, 12, 0, -1245002, 15, 0, -1244995, 12, 0, -1244987, 12, 0, -1244962, 22, 0, -1244961, 21, 0, -1244956, 22, 0, -1244952, 21, 0, -1179516, 12, 0, -1179515, 12, 0, -1179514, 12, 0, -1179505, 12, 0, -1179504, 12, 0, -1179503, 12, 0, -1179498, 22, 0, -1179497, 3, 0, -1179496, 3, 0, -1179495, 21, 0, -1179490, 12, 0, -1179489, 12, 0, -1179488, 12, 0, -1179479, 12, 0, -1179478, 12, 0, -1179477, 12, 0, -1179468, 12, 0, -1179467, 12, 0, -1179466, 12, 0, -1179459, 12, 0, -1179451, 12, 0, -1113980, 12, 0, -1113979, 12, 0, -1113978, 12, 0, -1113969, 12, 0, -1113968, 12, 0, -1113967, 12, 0, -1113963, 12, 0, -1113962, 12, 0, -1113961, 12, 0, -1113960, 12, 0, -1113959, 12, 0, -1113958, 12, 0, -1113954, 12, 0, -1113953, 12, 0, -1113952, 12, 0, -1113943, 12, 0, -1113942, 12, 0, -1113941, 12, 0, -1113932, 12, 0, -1113931, 12, 0, -1113930, 12, 0, -1113924, 22, 0, -1113923, 12, 0, -1113922, 21, 0, -1113916, 22, 0, -1113915, 12, 0, -1113914, 21, 0 )

[node name="Goal" parent="." index="6" instance=ExtResource( 7 )]

position = Vector2( 6332.37, -183.368 )

[node name="Player" parent="." index="7" instance=ExtResource( 8 )]

[node name="GrassTiles" parent="." index="8" instance=ExtResource( 9 )]

tile_data = PoolIntArray( -327483, 1, 0, -327482, 1, 0, -327481, 1, 0, -327480, 1, 0, -327479, 1, 0, -327478, 1, 0, 720973, 3, 0, 720974, 0, 0, 720975, 0, 0, 720976, 0, 0, 720977, 0, 0, 720978, 0, 0, 720979, 0, 0, 720980, 0, 0, 720981, 0, 0, 720982, 2, 0, 786509, 4, 0, 786510, 1, 0, 786511, 1, 0, 786512, 1, 0, 786513, 1, 0, 786514, 1, 0, 786515, 1, 0, 786516, 1, 0, 786517, 1, 0, 786518, 5, 0, 852045, 1, 0, 852046, 1, 0, 852047, 1, 0, 852048, 1, 0, 852049, 1, 0, 852050, 1, 0, 852051, 1, 0, 852052, 1, 0, 852053, 1, 0, 852054, 1, 0, 1114185, 0, 0, 1114186, 0, 0, 1114187, 0, 0, 1179721, 1, 0, 1179722, 1, 0, 1179723, 1, 0 )

[node name="Gunturret" parent="." index="9" instance=ExtResource( 10 )]

position = Vector2( 3332.43, 211.827 )

[node name="Gunturret2" parent="." index="10" instance=ExtResource( 10 )]

position = Vector2( 3920.5, -522.53 )

[node name="Gunturret3" parent="." index="11" instance=ExtResource( 10 )]

position = Vector2( 4752.63, -522.53 )

[node name="Gunturret4" parent="." index="12" instance=ExtResource( 10 )]

position = Vector2( 5327.47, -521.501 )

[node name="Sign" parent="." index="13" instance=ExtResource( 11 )]

position = Vector2( 7695.73, -496.291 )
rotation = 4.71239
vframes = 3
hframes = 3
frame = 7
region_enabled = false
_sections_unfolded = [ "Animation", "Region", "Transform" ]


