[gd_scene load_steps=5 format=2]

[ext_resource path="res://scenes/scripts/MovingPlatformLeftRight.gd" type="Script" id=1]
[ext_resource path="res://Art/Entities/Moving-Platform.png" type="Texture" id=2]

[sub_resource type="Animation" id=1]

resource_name = "PlatformAnimation"
length = 4.0
loop = true
step = 0.1
tracks/0/type = "value"
tracks/0/path = NodePath(".:frame")
tracks/0/interp = 1
tracks/0/loop_wrap = true
tracks/0/imported = false
tracks/0/enabled = true
tracks/0/keys = {
"times": PoolRealArray( 1, 2, 3, 4, 12.3 ),
"transitions": PoolRealArray( 1, 1, 1, 1, 1 ),
"update": 1,
"values": [ 0, 1, 2, 3, 1 ]
}

[sub_resource type="RectangleShape2D" id=2]

custom_solver_bias = 0.0
extents = Vector2( 76.0025, 11.0405 )

[node name="HorizontalMovingPlatformLeftRight" type="KinematicBody2D"]

input_pickable = false
collision_layer = 7
collision_mask = 3
collision/safe_margin = 0.001
script = ExtResource( 1 )
_sections_unfolded = [ "Collision", "collision" ]
min_x = null
max_x = null
speed = 2

[node name="Sprite" type="Sprite" parent="." index="0"]

texture = ExtResource( 2 )
vframes = 4
frame = 1
_sections_unfolded = [ "Animation" ]

[node name="AnimationPlayer" type="AnimationPlayer" parent="Sprite" index="0"]

root_node = NodePath("..")
autoplay = "MovingPlatformAnimation"
playback_process_mode = 1
playback_default_blend_time = 0.0
playback_speed = 12.0
anims/MovingPlatformAnimation = SubResource( 1 )
blend_times = [  ]
_sections_unfolded = [ "Playback Options" ]

[node name="PhysicHitbox" type="CollisionShape2D" parent="." index="1"]

position = Vector2( 0, 4 )
shape = SubResource( 2 )
_sections_unfolded = [ "Transform" ]

[node name="PauseTime" type="Timer" parent="." index="2"]

process_mode = 1
wait_time = 1.0
one_shot = false
autostart = true

[connection signal="timeout" from="PauseTime" to="." method="_on_PauseTime_timeout"]


