[gd_scene load_steps=4 format=2]

[ext_resource path="res://scenes/scripts/loadingScreen.gd" type="Script" id=1]
[ext_resource path="res://Art/Other/loading 2.png" type="Texture" id=2]
[ext_resource path="res://Sounds/Loading music.wav" type="AudioStream" id=3]

[node name="loadingScreen" type="Node2D"]

pause_mode = 1
scale = Vector2( 12, 12 )
script = ExtResource( 1 )
_sections_unfolded = [ "Pause", "Transform" ]

[node name="Sprite" type="Sprite" parent="." index="0"]

texture = ExtResource( 2 )
_sections_unfolded = [ "Transform" ]

[node name="Camera2D" type="Camera2D" parent="." index="1"]

scale = Vector2( 0.1, 0.1 )
anchor_mode = 1
rotating = false
current = true
zoom = Vector2( 1, 1 )
limit_left = -10000000
limit_top = -10000000
limit_right = 10000000
limit_bottom = 10000000
limit_smoothed = false
drag_margin_h_enabled = true
drag_margin_v_enabled = true
smoothing_enabled = false
smoothing_speed = 5.0
offset_v = 0.0
offset_h = 0.0
drag_margin_left = 0.2
drag_margin_top = 0.2
drag_margin_right = 0.2
drag_margin_bottom = 0.2
editor_draw_screen = true
editor_draw_limits = false
editor_draw_drag_margin = false

[node name="Timer" type="Timer" parent="." index="2"]

process_mode = 1
wait_time = 1.5
one_shot = true
autostart = true

[node name="AudioStreamPlayer" type="AudioStreamPlayer" parent="." index="3"]

stream = ExtResource( 3 )
volume_db = -10.0
autoplay = false
mix_target = 0
bus = "Master"
_sections_unfolded = [ "Pause" ]

[connection signal="timeout" from="Timer" to="." method="_on_done_loading"]


